(kicad_sch (version 20211123) (generator eeschema)

  (uuid f90181cd-abe7-4b04-ae67-339601e6f0a3)

  (paper "A4")

  (title_block
    (title "HFV-1")
    (date "2022-04-12")
    (rev "1.0")
    (company "AB1IP")
    (comment 1 "Audio input/output")
  )

  (lib_symbols
    (symbol "Device:C_Polarized_Small_US" (pin_numbers hide) (pin_names (offset 0.254) hide) (in_bom yes) (on_board yes)
      (property "Reference" "C" (id 0) (at 0.254 1.778 0)
        (effects (font (size 1.27 1.27)) (justify left))
      )
      (property "Value" "C_Polarized_Small_US" (id 1) (at 0.254 -2.032 0)
        (effects (font (size 1.27 1.27)) (justify left))
      )
      (property "Footprint" "" (id 2) (at 0 0 0)
        (effects (font (size 1.27 1.27)) hide)
      )
      (property "Datasheet" "~" (id 3) (at 0 0 0)
        (effects (font (size 1.27 1.27)) hide)
      )
      (property "ki_keywords" "cap capacitor" (id 4) (at 0 0 0)
        (effects (font (size 1.27 1.27)) hide)
      )
      (property "ki_description" "Polarized capacitor, small US symbol" (id 5) (at 0 0 0)
        (effects (font (size 1.27 1.27)) hide)
      )
      (property "ki_fp_filters" "CP_*" (id 6) (at 0 0 0)
        (effects (font (size 1.27 1.27)) hide)
      )
      (symbol "C_Polarized_Small_US_0_1"
        (polyline
          (pts
            (xy -1.524 0.508)
            (xy 1.524 0.508)
          )
          (stroke (width 0.3048) (type default) (color 0 0 0 0))
          (fill (type none))
        )
        (polyline
          (pts
            (xy -1.27 1.524)
            (xy -0.762 1.524)
          )
          (stroke (width 0) (type default) (color 0 0 0 0))
          (fill (type none))
        )
        (polyline
          (pts
            (xy -1.016 1.27)
            (xy -1.016 1.778)
          )
          (stroke (width 0) (type default) (color 0 0 0 0))
          (fill (type none))
        )
        (arc (start 1.524 -0.762) (mid 0 -0.3734) (end -1.524 -0.762)
          (stroke (width 0.3048) (type default) (color 0 0 0 0))
          (fill (type none))
        )
      )
      (symbol "C_Polarized_Small_US_1_1"
        (pin passive line (at 0 2.54 270) (length 2.032)
          (name "~" (effects (font (size 1.27 1.27))))
          (number "1" (effects (font (size 1.27 1.27))))
        )
        (pin passive line (at 0 -2.54 90) (length 2.032)
          (name "~" (effects (font (size 1.27 1.27))))
          (number "2" (effects (font (size 1.27 1.27))))
        )
      )
    )
    (symbol "Device:C_Small" (pin_numbers hide) (pin_names (offset 0.254) hide) (in_bom yes) (on_board yes)
      (property "Reference" "C" (id 0) (at 0.254 1.778 0)
        (effects (font (size 1.27 1.27)) (justify left))
      )
      (property "Value" "C_Small" (id 1) (at 0.254 -2.032 0)
        (effects (font (size 1.27 1.27)) (justify left))
      )
      (property "Footprint" "" (id 2) (at 0 0 0)
        (effects (font (size 1.27 1.27)) hide)
      )
      (property "Datasheet" "~" (id 3) (at 0 0 0)
        (effects (font (size 1.27 1.27)) hide)
      )
      (property "ki_keywords" "capacitor cap" (id 4) (at 0 0 0)
        (effects (font (size 1.27 1.27)) hide)
      )
      (property "ki_description" "Unpolarized capacitor, small symbol" (id 5) (at 0 0 0)
        (effects (font (size 1.27 1.27)) hide)
      )
      (property "ki_fp_filters" "C_*" (id 6) (at 0 0 0)
        (effects (font (size 1.27 1.27)) hide)
      )
      (symbol "C_Small_0_1"
        (polyline
          (pts
            (xy -1.524 -0.508)
            (xy 1.524 -0.508)
          )
          (stroke (width 0.3302) (type default) (color 0 0 0 0))
          (fill (type none))
        )
        (polyline
          (pts
            (xy -1.524 0.508)
            (xy 1.524 0.508)
          )
          (stroke (width 0.3048) (type default) (color 0 0 0 0))
          (fill (type none))
        )
      )
      (symbol "C_Small_1_1"
        (pin passive line (at 0 2.54 270) (length 2.032)
          (name "~" (effects (font (size 1.27 1.27))))
          (number "1" (effects (font (size 1.27 1.27))))
        )
        (pin passive line (at 0 -2.54 90) (length 2.032)
          (name "~" (effects (font (size 1.27 1.27))))
          (number "2" (effects (font (size 1.27 1.27))))
        )
      )
    )
    (symbol "Device:Q_NPN_BEC" (pin_names (offset 0) hide) (in_bom yes) (on_board yes)
      (property "Reference" "Q" (id 0) (at 5.08 1.27 0)
        (effects (font (size 1.27 1.27)) (justify left))
      )
      (property "Value" "Q_NPN_BEC" (id 1) (at 5.08 -1.27 0)
        (effects (font (size 1.27 1.27)) (justify left))
      )
      (property "Footprint" "" (id 2) (at 5.08 2.54 0)
        (effects (font (size 1.27 1.27)) hide)
      )
      (property "Datasheet" "~" (id 3) (at 0 0 0)
        (effects (font (size 1.27 1.27)) hide)
      )
      (property "ki_keywords" "transistor NPN" (id 4) (at 0 0 0)
        (effects (font (size 1.27 1.27)) hide)
      )
      (property "ki_description" "NPN transistor, base/emitter/collector" (id 5) (at 0 0 0)
        (effects (font (size 1.27 1.27)) hide)
      )
      (symbol "Q_NPN_BEC_0_1"
        (polyline
          (pts
            (xy 0.635 0.635)
            (xy 2.54 2.54)
          )
          (stroke (width 0) (type default) (color 0 0 0 0))
          (fill (type none))
        )
        (polyline
          (pts
            (xy 0.635 -0.635)
            (xy 2.54 -2.54)
            (xy 2.54 -2.54)
          )
          (stroke (width 0) (type default) (color 0 0 0 0))
          (fill (type none))
        )
        (polyline
          (pts
            (xy 0.635 1.905)
            (xy 0.635 -1.905)
            (xy 0.635 -1.905)
          )
          (stroke (width 0.508) (type default) (color 0 0 0 0))
          (fill (type none))
        )
        (polyline
          (pts
            (xy 1.27 -1.778)
            (xy 1.778 -1.27)
            (xy 2.286 -2.286)
            (xy 1.27 -1.778)
            (xy 1.27 -1.778)
          )
          (stroke (width 0) (type default) (color 0 0 0 0))
          (fill (type outline))
        )
        (circle (center 1.27 0) (radius 2.8194)
          (stroke (width 0.254) (type default) (color 0 0 0 0))
          (fill (type none))
        )
      )
      (symbol "Q_NPN_BEC_1_1"
        (pin input line (at -5.08 0 0) (length 5.715)
          (name "B" (effects (font (size 1.27 1.27))))
          (number "1" (effects (font (size 1.27 1.27))))
        )
        (pin passive line (at 2.54 -5.08 90) (length 2.54)
          (name "E" (effects (font (size 1.27 1.27))))
          (number "2" (effects (font (size 1.27 1.27))))
        )
        (pin passive line (at 2.54 5.08 270) (length 2.54)
          (name "C" (effects (font (size 1.27 1.27))))
          (number "3" (effects (font (size 1.27 1.27))))
        )
      )
    )
    (symbol "Device:R_Small_US" (pin_numbers hide) (pin_names (offset 0.254) hide) (in_bom yes) (on_board yes)
      (property "Reference" "R" (id 0) (at 0.762 0.508 0)
        (effects (font (size 1.27 1.27)) (justify left))
      )
      (property "Value" "R_Small_US" (id 1) (at 0.762 -1.016 0)
        (effects (font (size 1.27 1.27)) (justify left))
      )
      (property "Footprint" "" (id 2) (at 0 0 0)
        (effects (font (size 1.27 1.27)) hide)
      )
      (property "Datasheet" "~" (id 3) (at 0 0 0)
        (effects (font (size 1.27 1.27)) hide)
      )
      (property "ki_keywords" "r resistor" (id 4) (at 0 0 0)
        (effects (font (size 1.27 1.27)) hide)
      )
      (property "ki_description" "Resistor, small US symbol" (id 5) (at 0 0 0)
        (effects (font (size 1.27 1.27)) hide)
      )
      (property "ki_fp_filters" "R_*" (id 6) (at 0 0 0)
        (effects (font (size 1.27 1.27)) hide)
      )
      (symbol "R_Small_US_1_1"
        (polyline
          (pts
            (xy 0 0)
            (xy 1.016 -0.381)
            (xy 0 -0.762)
            (xy -1.016 -1.143)
            (xy 0 -1.524)
          )
          (stroke (width 0) (type default) (color 0 0 0 0))
          (fill (type none))
        )
        (polyline
          (pts
            (xy 0 1.524)
            (xy 1.016 1.143)
            (xy 0 0.762)
            (xy -1.016 0.381)
            (xy 0 0)
          )
          (stroke (width 0) (type default) (color 0 0 0 0))
          (fill (type none))
        )
        (pin passive line (at 0 2.54 270) (length 1.016)
          (name "~" (effects (font (size 1.27 1.27))))
          (number "1" (effects (font (size 1.27 1.27))))
        )
        (pin passive line (at 0 -2.54 90) (length 1.016)
          (name "~" (effects (font (size 1.27 1.27))))
          (number "2" (effects (font (size 1.27 1.27))))
        )
      )
    )
    (symbol "Device:Speaker" (pin_names (offset 0) hide) (in_bom yes) (on_board yes)
      (property "Reference" "LS" (id 0) (at 1.27 5.715 0)
        (effects (font (size 1.27 1.27)) (justify right))
      )
      (property "Value" "Speaker" (id 1) (at 1.27 3.81 0)
        (effects (font (size 1.27 1.27)) (justify right))
      )
      (property "Footprint" "" (id 2) (at 0 -5.08 0)
        (effects (font (size 1.27 1.27)) hide)
      )
      (property "Datasheet" "~" (id 3) (at -0.254 -1.27 0)
        (effects (font (size 1.27 1.27)) hide)
      )
      (property "ki_keywords" "speaker sound" (id 4) (at 0 0 0)
        (effects (font (size 1.27 1.27)) hide)
      )
      (property "ki_description" "Speaker" (id 5) (at 0 0 0)
        (effects (font (size 1.27 1.27)) hide)
      )
      (symbol "Speaker_0_0"
        (rectangle (start -2.54 1.27) (end 1.016 -3.81)
          (stroke (width 0.254) (type default) (color 0 0 0 0))
          (fill (type none))
        )
        (polyline
          (pts
            (xy 1.016 1.27)
            (xy 3.556 3.81)
            (xy 3.556 -6.35)
            (xy 1.016 -3.81)
          )
          (stroke (width 0.254) (type default) (color 0 0 0 0))
          (fill (type none))
        )
      )
      (symbol "Speaker_1_1"
        (pin input line (at -5.08 0 0) (length 2.54)
          (name "1" (effects (font (size 1.27 1.27))))
          (number "1" (effects (font (size 1.27 1.27))))
        )
        (pin input line (at -5.08 -2.54 0) (length 2.54)
          (name "2" (effects (font (size 1.27 1.27))))
          (number "2" (effects (font (size 1.27 1.27))))
        )
      )
    )
    (symbol "hfv-1:AD8616" (pin_names (offset 0.127)) (in_bom yes) (on_board yes)
      (property "Reference" "U" (id 0) (at 0 5.08 0)
        (effects (font (size 1.27 1.27)) (justify left))
      )
      (property "Value" "AD8616" (id 1) (at 0 -5.08 0)
        (effects (font (size 1.27 1.27)) (justify left))
      )
      (property "Footprint" "Package_SO:SOIC-8_3.9x4.9mm_P1.27mm" (id 2) (at 0 0 0)
        (effects (font (size 1.27 1.27)) hide)
      )
      (property "Datasheet" "https://www.analog.com/media/en/technical-documentation/data-sheets/AD8615_8616_8618.pdf" (id 3) (at 0 0 0)
        (effects (font (size 1.27 1.27)) hide)
      )
      (property "ki_locked" "" (id 4) (at 0 0 0)
        (effects (font (size 1.27 1.27)))
      )
      (property "ki_keywords" "dual opamp" (id 5) (at 0 0 0)
        (effects (font (size 1.27 1.27)) hide)
      )
      (property "ki_description" "Dual Operational Amplifiers" (id 6) (at 0 0 0)
        (effects (font (size 1.27 1.27)) hide)
      )
      (property "ki_fp_filters" "SOIC*3.9x4.9mm*P1.27mm* DIP*W7.62mm* TO*99* OnSemi*Micro8* TSSOP*3x3mm*P0.65mm* TSSOP*4.4x3mm*P0.65mm* MSOP*3x3mm*P0.65mm* SSOP*3.9x4.9mm*P0.635mm* LFCSP*2x2mm*P0.5mm* *SIP* SOIC*5.3x6.2mm*P1.27mm*" (id 7) (at 0 0 0)
        (effects (font (size 1.27 1.27)) hide)
      )
      (symbol "AD8616_1_1"
        (polyline
          (pts
            (xy -5.08 5.08)
            (xy 5.08 0)
            (xy -5.08 -5.08)
            (xy -5.08 5.08)
          )
          (stroke (width 0.254) (type default) (color 0 0 0 0))
          (fill (type background))
        )
        (pin output line (at 7.62 0 180) (length 2.54)
          (name "~" (effects (font (size 1.27 1.27))))
          (number "1" (effects (font (size 1.27 1.27))))
        )
        (pin input line (at -7.62 -2.54 0) (length 2.54)
          (name "-" (effects (font (size 1.27 1.27))))
          (number "2" (effects (font (size 1.27 1.27))))
        )
        (pin input line (at -7.62 2.54 0) (length 2.54)
          (name "+" (effects (font (size 1.27 1.27))))
          (number "3" (effects (font (size 1.27 1.27))))
        )
      )
      (symbol "AD8616_2_1"
        (polyline
          (pts
            (xy -5.08 5.08)
            (xy 5.08 0)
            (xy -5.08 -5.08)
            (xy -5.08 5.08)
          )
          (stroke (width 0.254) (type default) (color 0 0 0 0))
          (fill (type background))
        )
        (pin input line (at -7.62 2.54 0) (length 2.54)
          (name "+" (effects (font (size 1.27 1.27))))
          (number "5" (effects (font (size 1.27 1.27))))
        )
        (pin input line (at -7.62 -2.54 0) (length 2.54)
          (name "-" (effects (font (size 1.27 1.27))))
          (number "6" (effects (font (size 1.27 1.27))))
        )
        (pin output line (at 7.62 0 180) (length 2.54)
          (name "~" (effects (font (size 1.27 1.27))))
          (number "7" (effects (font (size 1.27 1.27))))
        )
      )
      (symbol "AD8616_3_1"
        (pin power_in line (at -2.54 -7.62 90) (length 3.81)
          (name "V-" (effects (font (size 1.27 1.27))))
          (number "4" (effects (font (size 1.27 1.27))))
        )
        (pin power_in line (at -2.54 7.62 270) (length 3.81)
          (name "V+" (effects (font (size 1.27 1.27))))
          (number "8" (effects (font (size 1.27 1.27))))
        )
      )
    )
    (symbol "hfv-1:AudioJack4_Switch" (in_bom yes) (on_board yes)
      (property "Reference" "J" (id 0) (at 0 8.89 0)
        (effects (font (size 1.27 1.27)))
      )
      (property "Value" "AudioJack4_Switch" (id 1) (at 0 6.35 0)
        (effects (font (size 1.27 1.27)))
      )
      (property "Footprint" "" (id 2) (at -1.27 -2.54 0)
        (effects (font (size 1.27 1.27)) hide)
      )
      (property "Datasheet" "~" (id 3) (at -1.27 -2.54 0)
        (effects (font (size 1.27 1.27)) hide)
      )
      (property "ki_keywords" "audio jack receptacle stereo headphones phones TRS connector" (id 4) (at 0 0 0)
        (effects (font (size 1.27 1.27)) hide)
      )
      (property "ki_description" "Audio Jack, 4 Poles (Stereo / TRRS), Switched TR1 Poles (Normalling)" (id 5) (at 0 0 0)
        (effects (font (size 1.27 1.27)) hide)
      )
      (property "ki_fp_filters" "Jack*" (id 6) (at 0 0 0)
        (effects (font (size 1.27 1.27)) hide)
      )
      (symbol "AudioJack4_Switch_0_1"
        (rectangle (start -7.62 -5.08) (end -8.89 -7.62)
          (stroke (width 0.254) (type default) (color 0 0 0 0))
          (fill (type outline))
        )
        (rectangle (start -7.62 3.81) (end 1.27 -10.16)
          (stroke (width 0.254) (type default) (color 0 0 0 0))
          (fill (type background))
        )
        (polyline
          (pts
            (xy 1.27 -5.08)
            (xy 2.54 -5.08)
          )
          (stroke (width 0) (type default) (color 0 0 0 0))
          (fill (type none))
        )
        (polyline
          (pts
            (xy 1.27 0)
            (xy 2.54 0)
          )
          (stroke (width 0) (type default) (color 0 0 0 0))
          (fill (type none))
        )
        (polyline
          (pts
            (xy 2.54 -2.54)
            (xy 1.27 -2.54)
          )
          (stroke (width 0) (type default) (color 0 0 0 0))
          (fill (type none))
        )
        (polyline
          (pts
            (xy 2.54 2.54)
            (xy 1.27 2.54)
          )
          (stroke (width 0) (type default) (color 0 0 0 0))
          (fill (type none))
        )
      )
      (symbol "AudioJack4_Switch_1_1"
        (polyline
          (pts
            (xy 0.508 -5.334)
            (xy 0.762 -5.842)
          )
          (stroke (width 0) (type default) (color 0 0 0 0))
          (fill (type none))
        )
        (polyline
          (pts
            (xy -1.27 -5.08)
            (xy -0.635 -5.715)
            (xy 0 -5.08)
            (xy 1.27 -5.08)
          )
          (stroke (width 0.254) (type default) (color 0 0 0 0))
          (fill (type none))
        )
        (polyline
          (pts
            (xy 2.54 -7.62)
            (xy 0.508 -7.62)
            (xy 0.508 -5.334)
            (xy 0.254 -5.842)
          )
          (stroke (width 0) (type default) (color 0 0 0 0))
          (fill (type none))
        )
        (polyline
          (pts
            (xy -3.175 -5.08)
            (xy -2.54 -5.715)
            (xy -1.905 -5.08)
            (xy -1.905 -2.54)
            (xy 1.27 -2.54)
          )
          (stroke (width 0.254) (type default) (color 0 0 0 0))
          (fill (type none))
        )
        (polyline
          (pts
            (xy 1.27 0)
            (xy -3.81 0)
            (xy -3.81 -5.08)
            (xy -4.445 -5.715)
            (xy -5.08 -5.08)
          )
          (stroke (width 0.254) (type default) (color 0 0 0 0))
          (fill (type none))
        )
        (polyline
          (pts
            (xy 1.27 2.54)
            (xy -5.715 2.54)
            (xy -5.715 -5.08)
            (xy -6.35 -5.715)
            (xy -6.985 -5.08)
          )
          (stroke (width 0.254) (type default) (color 0 0 0 0))
          (fill (type none))
        )
        (pin passive line (at 5.08 -2.54 180) (length 2.54)
          (name "~" (effects (font (size 1.27 1.27))))
          (number "R1" (effects (font (size 1.27 1.27))))
        )
        (pin passive line (at 5.08 0 180) (length 2.54)
          (name "~" (effects (font (size 1.27 1.27))))
          (number "R2" (effects (font (size 1.27 1.27))))
        )
        (pin passive line (at 5.08 2.54 180) (length 2.54)
          (name "~" (effects (font (size 1.27 1.27))))
          (number "S" (effects (font (size 1.27 1.27))))
        )
        (pin passive line (at 5.08 -5.08 180) (length 2.54)
          (name "~" (effects (font (size 1.27 1.27))))
          (number "T" (effects (font (size 1.27 1.27))))
        )
        (pin passive line (at 5.08 -7.62 180) (length 2.54)
          (name "~" (effects (font (size 1.27 1.27))))
          (number "TN" (effects (font (size 1.27 1.27))))
        )
      )
    )
    (symbol "hfv-1:GND" (power) (pin_names (offset 0)) (in_bom yes) (on_board yes)
      (property "Reference" "#PWR" (id 0) (at 0 -6.35 0)
        (effects (font (size 1.27 1.27)) hide)
      )
      (property "Value" "GND" (id 1) (at 0 -3.81 0)
        (effects (font (size 1.27 1.27)))
      )
      (property "Footprint" "" (id 2) (at 0 0 0)
        (effects (font (size 1.27 1.27)) hide)
      )
      (property "Datasheet" "" (id 3) (at 0 0 0)
        (effects (font (size 1.27 1.27)) hide)
      )
      (property "ki_keywords" "power-flag" (id 4) (at 0 0 0)
        (effects (font (size 1.27 1.27)) hide)
      )
      (property "ki_description" "Power symbol creates a global label with name \"GND\" , ground" (id 5) (at 0 0 0)
        (effects (font (size 1.27 1.27)) hide)
      )
      (symbol "GND_0_1"
        (polyline
          (pts
            (xy -0.762 -1.905)
            (xy 0.762 -1.905)
          )
          (stroke (width 0.1524) (type default) (color 0 0 0 0))
          (fill (type none))
        )
        (polyline
          (pts
            (xy -0.127 -2.54)
            (xy 0.127 -2.54)
          )
          (stroke (width 0.1524) (type default) (color 0 0 0 0))
          (fill (type none))
        )
        (polyline
          (pts
            (xy 0 0)
            (xy 0 -1.27)
          )
          (stroke (width 0.1524) (type default) (color 0 0 0 0))
          (fill (type none))
        )
        (polyline
          (pts
            (xy 1.27 -1.27)
            (xy -1.27 -1.27)
          )
          (stroke (width 0.1524) (type default) (color 0 0 0 0))
          (fill (type none))
        )
      )
      (symbol "GND_1_1"
        (pin power_in line (at 0 0 270) (length 0) hide
          (name "GND" (effects (font (size 1.27 1.27))))
          (number "1" (effects (font (size 1.27 1.27))))
        )
      )
    )
    (symbol "hfv-1:LM4808" (pin_names (offset 0.127)) (in_bom yes) (on_board yes)
      (property "Reference" "U" (id 0) (at 0 5.08 0)
        (effects (font (size 1.27 1.27)) (justify left))
      )
      (property "Value" "LM4808" (id 1) (at 0 -5.08 0)
        (effects (font (size 1.27 1.27)) (justify left))
      )
      (property "Footprint" "Package_SO:SO-8_3.9x4.9mm_P1.27mm" (id 2) (at 0 0 0)
        (effects (font (size 1.27 1.27)) hide)
      )
      (property "Datasheet" "https://www.ti.com/lit/ds/symlink/lm4808.pdf" (id 3) (at 0 0 0)
        (effects (font (size 1.27 1.27)) hide)
      )
      (property "ki_locked" "" (id 4) (at 0 0 0)
        (effects (font (size 1.27 1.27)))
      )
      (property "ki_description" "Dual 105 mW amplifier" (id 5) (at 0 0 0)
        (effects (font (size 1.27 1.27)) hide)
      )
      (property "ki_fp_filters" "SOIC*3.9x4.9mm*P1.27mm* DIP*W7.62mm* TO*99* OnSemi*Micro8* TSSOP*3x3mm*P0.65mm* TSSOP*4.4x3mm*P0.65mm* MSOP*3x3mm*P0.65mm* SSOP*3.9x4.9mm*P0.635mm* LFCSP*2x2mm*P0.5mm* *SIP* SOIC*5.3x6.2mm*P1.27mm*" (id 6) (at 0 0 0)
        (effects (font (size 1.27 1.27)) hide)
      )
      (symbol "LM4808_1_1"
        (polyline
          (pts
            (xy -5.08 5.08)
            (xy 5.08 0)
            (xy -5.08 -5.08)
            (xy -5.08 5.08)
          )
          (stroke (width 0.254) (type default) (color 0 0 0 0))
          (fill (type background))
        )
        (pin output line (at 7.62 0 180) (length 2.54)
          (name "~" (effects (font (size 1.27 1.27))))
          (number "1" (effects (font (size 1.27 1.27))))
        )
        (pin input line (at -7.62 -2.54 0) (length 2.54)
          (name "-" (effects (font (size 1.27 1.27))))
          (number "2" (effects (font (size 1.27 1.27))))
        )
        (pin input line (at -7.62 2.54 0) (length 2.54)
          (name "+" (effects (font (size 1.27 1.27))))
          (number "3" (effects (font (size 1.27 1.27))))
        )
      )
      (symbol "LM4808_2_1"
        (polyline
          (pts
            (xy -5.08 5.08)
            (xy 5.08 0)
            (xy -5.08 -5.08)
            (xy -5.08 5.08)
          )
          (stroke (width 0.254) (type default) (color 0 0 0 0))
          (fill (type background))
        )
        (pin input line (at -7.62 2.54 0) (length 2.54)
          (name "+" (effects (font (size 1.27 1.27))))
          (number "5" (effects (font (size 1.27 1.27))))
        )
        (pin input line (at -7.62 -2.54 0) (length 2.54)
          (name "-" (effects (font (size 1.27 1.27))))
          (number "6" (effects (font (size 1.27 1.27))))
        )
        (pin output line (at 7.62 0 180) (length 2.54)
          (name "~" (effects (font (size 1.27 1.27))))
          (number "7" (effects (font (size 1.27 1.27))))
        )
      )
      (symbol "LM4808_3_1"
        (pin power_in line (at -2.54 -7.62 90) (length 3.81)
          (name "V-" (effects (font (size 1.27 1.27))))
          (number "4" (effects (font (size 1.27 1.27))))
        )
        (pin power_in line (at -2.54 7.62 270) (length 3.81)
          (name "V+" (effects (font (size 1.27 1.27))))
          (number "8" (effects (font (size 1.27 1.27))))
        )
      )
    )
    (symbol "power:+3V3" (power) (pin_names (offset 0)) (in_bom yes) (on_board yes)
      (property "Reference" "#PWR" (id 0) (at 0 -3.81 0)
        (effects (font (size 1.27 1.27)) hide)
      )
      (property "Value" "+3V3" (id 1) (at 0 3.556 0)
        (effects (font (size 1.27 1.27)))
      )
      (property "Footprint" "" (id 2) (at 0 0 0)
        (effects (font (size 1.27 1.27)) hide)
      )
      (property "Datasheet" "" (id 3) (at 0 0 0)
        (effects (font (size 1.27 1.27)) hide)
      )
      (property "ki_keywords" "power-flag" (id 4) (at 0 0 0)
        (effects (font (size 1.27 1.27)) hide)
      )
      (property "ki_description" "Power symbol creates a global label with name \"+3V3\"" (id 5) (at 0 0 0)
        (effects (font (size 1.27 1.27)) hide)
      )
      (symbol "+3V3_0_1"
        (polyline
          (pts
            (xy -0.762 1.27)
            (xy 0 2.54)
          )
          (stroke (width 0) (type default) (color 0 0 0 0))
          (fill (type none))
        )
        (polyline
          (pts
            (xy 0 0)
            (xy 0 2.54)
          )
          (stroke (width 0) (type default) (color 0 0 0 0))
          (fill (type none))
        )
        (polyline
          (pts
            (xy 0 2.54)
            (xy 0.762 1.27)
          )
          (stroke (width 0) (type default) (color 0 0 0 0))
          (fill (type none))
        )
      )
      (symbol "+3V3_1_1"
        (pin power_in line (at 0 0 90) (length 0) hide
          (name "+3V3" (effects (font (size 1.27 1.27))))
          (number "1" (effects (font (size 1.27 1.27))))
        )
      )
    )
    (symbol "power:+5V" (power) (pin_names (offset 0)) (in_bom yes) (on_board yes)
      (property "Reference" "#PWR" (id 0) (at 0 -3.81 0)
        (effects (font (size 1.27 1.27)) hide)
      )
      (property "Value" "+5V" (id 1) (at 0 3.556 0)
        (effects (font (size 1.27 1.27)))
      )
      (property "Footprint" "" (id 2) (at 0 0 0)
        (effects (font (size 1.27 1.27)) hide)
      )
      (property "Datasheet" "" (id 3) (at 0 0 0)
        (effects (font (size 1.27 1.27)) hide)
      )
      (property "ki_keywords" "power-flag" (id 4) (at 0 0 0)
        (effects (font (size 1.27 1.27)) hide)
      )
      (property "ki_description" "Power symbol creates a global label with name \"+5V\"" (id 5) (at 0 0 0)
        (effects (font (size 1.27 1.27)) hide)
      )
      (symbol "+5V_0_1"
        (polyline
          (pts
            (xy -0.762 1.27)
            (xy 0 2.54)
          )
          (stroke (width 0) (type default) (color 0 0 0 0))
          (fill (type none))
        )
        (polyline
          (pts
            (xy 0 0)
            (xy 0 2.54)
          )
          (stroke (width 0) (type default) (color 0 0 0 0))
          (fill (type none))
        )
        (polyline
          (pts
            (xy 0 2.54)
            (xy 0.762 1.27)
          )
          (stroke (width 0) (type default) (color 0 0 0 0))
          (fill (type none))
        )
      )
      (symbol "+5V_1_1"
        (pin power_in line (at 0 0 90) (length 0) hide
          (name "+5V" (effects (font (size 1.27 1.27))))
          (number "1" (effects (font (size 1.27 1.27))))
        )
      )
    )
  )

  (junction (at 142.24 116.205) (diameter 0) (color 0 0 0 0)
    (uuid 0bf173f9-aa07-4b4a-b48c-e0a683cdf5c4)
  )
  (junction (at 82.55 69.85) (diameter 0) (color 0 0 0 0)
    (uuid 0c510901-5b49-4ab4-a243-eedbfdadaa46)
  )
  (junction (at 200.025 120.015) (diameter 0) (color 0 0 0 0)
    (uuid 21cc4431-dd2e-4978-8836-b2df4a98d01d)
  )
  (junction (at 91.44 95.885) (diameter 0) (color 0 0 0 0)
    (uuid 3f9e3d84-a7f5-4ae1-8171-2f8f95ba11ae)
  )
  (junction (at 137.16 98.425) (diameter 0) (color 0 0 0 0)
    (uuid 41e98107-f45a-4361-9800-390aada944b0)
  )
  (junction (at 207.645 133.985) (diameter 0) (color 0 0 0 0)
    (uuid 514338a6-5af7-4b93-be10-3f1a6292c72c)
  )
  (junction (at 191.77 120.015) (diameter 0) (color 0 0 0 0)
    (uuid 73cf5160-be8f-4751-8c83-edbb85497392)
  )
  (junction (at 182.88 120.015) (diameter 0) (color 0 0 0 0)
    (uuid 75b57119-530e-4d08-a4bb-cbb7af27fa8a)
  )
  (junction (at 137.16 72.39) (diameter 0) (color 0 0 0 0)
    (uuid 78de9910-b49a-4559-88eb-3ff90b2ebf4d)
  )
  (junction (at 207.645 113.665) (diameter 0) (color 0 0 0 0)
    (uuid 830c628d-0740-4ba8-9ca7-47805c9a7206)
  )
  (junction (at 90.805 69.85) (diameter 0) (color 0 0 0 0)
    (uuid 9a608dc8-9059-4047-a0af-35341feb7e58)
  )
  (junction (at 126.365 84.455) (diameter 0) (color 0 0 0 0)
    (uuid 9c84e7c8-9ad1-43d2-83f1-310a0c2cedd7)
  )
  (junction (at 142.24 131.445) (diameter 0) (color 0 0 0 0)
    (uuid aae2ef98-a588-4746-a472-30dce438a30d)
  )
  (junction (at 107.95 116.205) (diameter 0) (color 0 0 0 0)
    (uuid ad498361-64cf-4204-a26c-512045806ea3)
  )
  (junction (at 107.95 131.445) (diameter 0) (color 0 0 0 0)
    (uuid af64c8d8-7528-4955-9187-721401d9ecda)
  )
  (junction (at 153.67 95.885) (diameter 0) (color 0 0 0 0)
    (uuid b283b6dc-2120-4502-b261-597154e594ae)
  )
  (junction (at 207.645 126.365) (diameter 0) (color 0 0 0 0)
    (uuid b9fb78f4-7299-45ca-a1a2-5966c30e84f7)
  )
  (junction (at 117.475 98.425) (diameter 0) (color 0 0 0 0)
    (uuid d02007bf-6881-418d-b16c-c882eb06a707)
  )
  (junction (at 133.985 84.455) (diameter 0) (color 0 0 0 0)
    (uuid d4047bd9-688e-454c-9976-18e02d790e81)
  )
  (junction (at 137.16 84.455) (diameter 0) (color 0 0 0 0)
    (uuid d915046c-5784-4bb5-8955-5a94936628ff)
  )
  (junction (at 83.185 95.885) (diameter 0) (color 0 0 0 0)
    (uuid dd08b96d-7f60-41af-a7aa-eb84c5d2ef87)
  )
  (junction (at 116.84 72.39) (diameter 0) (color 0 0 0 0)
    (uuid e7580c21-07c7-47ca-a2ef-c94b47fcd116)
  )
  (junction (at 153.67 74.93) (diameter 0) (color 0 0 0 0)
    (uuid f496e119-75cf-4a45-bd8e-d0bd97170ab2)
  )

  (wire (pts (xy 137.16 84.455) (xy 137.16 93.345))
    (stroke (width 0) (type default) (color 0 0 0 0))
    (uuid 02909a1a-4f31-4bff-88a0-51a41a3c7842)
  )
  (wire (pts (xy 81.915 95.885) (xy 83.185 95.885))
    (stroke (width 0) (type default) (color 0 0 0 0))
    (uuid 0322f525-4c6b-405c-98cf-81cc0175c81b)
  )
  (wire (pts (xy 117.475 98.425) (xy 117.475 86.36))
    (stroke (width 0) (type default) (color 0 0 0 0))
    (uuid 06444694-52ad-4567-8667-0fbdb5178d82)
  )
  (wire (pts (xy 207.645 133.985) (xy 212.725 133.985))
    (stroke (width 0) (type default) (color 0 0 0 0))
    (uuid 073a3f1a-7379-4525-9912-1719f9fe3ce9)
  )
  (wire (pts (xy 207.645 113.665) (xy 207.645 114.935))
    (stroke (width 0) (type default) (color 0 0 0 0))
    (uuid 07f00756-7f8c-4ff0-922a-c0cdd561c829)
  )
  (wire (pts (xy 153.67 103.505) (xy 153.67 95.885))
    (stroke (width 0) (type default) (color 0 0 0 0))
    (uuid 0b031341-6937-482d-8b84-0e19252dadd4)
  )
  (wire (pts (xy 138.43 121.285) (xy 138.43 116.205))
    (stroke (width 0) (type default) (color 0 0 0 0))
    (uuid 0ee835f5-003f-47ac-b918-38f84010cfe7)
  )
  (wire (pts (xy 178.435 69.215) (xy 172.72 69.215))
    (stroke (width 0) (type default) (color 0 0 0 0))
    (uuid 0f1439a6-688c-4aa3-8007-2bf5d6a47dda)
  )
  (wire (pts (xy 117.475 86.36) (xy 102.87 86.36))
    (stroke (width 0) (type default) (color 0 0 0 0))
    (uuid 0f91f01c-3435-4564-80a1-2df6685ad7c6)
  )
  (wire (pts (xy 153.67 74.93) (xy 152.4 74.93))
    (stroke (width 0) (type default) (color 0 0 0 0))
    (uuid 10a47a82-1fff-4f00-85cf-49c6e48bfacf)
  )
  (wire (pts (xy 207.645 126.365) (xy 212.725 126.365))
    (stroke (width 0) (type default) (color 0 0 0 0))
    (uuid 15cdb82a-54ae-4a65-9aca-23da4a956989)
  )
  (wire (pts (xy 135.89 98.425) (xy 137.16 98.425))
    (stroke (width 0) (type default) (color 0 0 0 0))
    (uuid 18d869dc-5156-4eae-90c8-432486bd7cd1)
  )
  (wire (pts (xy 153.67 74.93) (xy 156.845 74.93))
    (stroke (width 0) (type default) (color 0 0 0 0))
    (uuid 19fe01a1-b4ec-4a29-9ff6-202b21267077)
  )
  (wire (pts (xy 133.985 84.455) (xy 137.16 84.455))
    (stroke (width 0) (type default) (color 0 0 0 0))
    (uuid 1a210fac-5b4e-43fc-a9d6-d877b17e59c3)
  )
  (wire (pts (xy 147.32 103.505) (xy 153.67 103.505))
    (stroke (width 0) (type default) (color 0 0 0 0))
    (uuid 1d2a6774-a458-4c11-8bef-4df60b9c2b59)
  )
  (wire (pts (xy 172.72 81.915) (xy 172.72 69.215))
    (stroke (width 0) (type default) (color 0 0 0 0))
    (uuid 1e126a5a-2684-4ba4-a269-26e5b66de4e3)
  )
  (wire (pts (xy 170.18 120.015) (xy 182.88 120.015))
    (stroke (width 0) (type default) (color 0 0 0 0))
    (uuid 21a617eb-e981-422a-b0c2-c47cecc5959d)
  )
  (wire (pts (xy 81.28 69.85) (xy 82.55 69.85))
    (stroke (width 0) (type default) (color 0 0 0 0))
    (uuid 24cc3430-50b1-4006-a6fc-766cf154a3af)
  )
  (wire (pts (xy 116.84 80.01) (xy 116.84 72.39))
    (stroke (width 0) (type default) (color 0 0 0 0))
    (uuid 2748cc6b-7bd8-4553-a952-837bcd28d323)
  )
  (wire (pts (xy 175.26 89.535) (xy 170.18 89.535))
    (stroke (width 0) (type default) (color 0 0 0 0))
    (uuid 293f7056-26a5-4a40-bb91-c4673a51e0da)
  )
  (wire (pts (xy 100.965 100.965) (xy 99.695 100.965))
    (stroke (width 0) (type default) (color 0 0 0 0))
    (uuid 2c1e80e1-63d6-4fd1-b7f4-e9d3419317b7)
  )
  (wire (pts (xy 182.88 120.015) (xy 184.785 120.015))
    (stroke (width 0) (type default) (color 0 0 0 0))
    (uuid 2dbbb834-7b2a-405c-bbc7-c8385f9244f3)
  )
  (wire (pts (xy 126.365 83.82) (xy 126.365 84.455))
    (stroke (width 0) (type default) (color 0 0 0 0))
    (uuid 2e1cd8dc-29ea-4886-b2fd-677dcf1a7e1e)
  )
  (wire (pts (xy 207.645 135.255) (xy 207.645 133.985))
    (stroke (width 0) (type default) (color 0 0 0 0))
    (uuid 31949578-4436-4ac6-9649-d2faad92a0c9)
  )
  (wire (pts (xy 97.155 60.325) (xy 82.55 60.325))
    (stroke (width 0) (type default) (color 0 0 0 0))
    (uuid 338b1f41-ee60-45e3-a3af-333653d291a6)
  )
  (wire (pts (xy 126.365 84.455) (xy 133.985 84.455))
    (stroke (width 0) (type default) (color 0 0 0 0))
    (uuid 342ce132-f288-4ea0-b1d5-f8660cbd9bec)
  )
  (wire (pts (xy 156.845 104.775) (xy 167.64 104.775))
    (stroke (width 0) (type default) (color 0 0 0 0))
    (uuid 349c9440-9774-4835-ba4c-2c996b6730ed)
  )
  (wire (pts (xy 137.16 103.505) (xy 137.16 98.425))
    (stroke (width 0) (type default) (color 0 0 0 0))
    (uuid 3a619046-cfbc-4481-a374-fdd894fbac58)
  )
  (wire (pts (xy 152.4 95.885) (xy 153.67 95.885))
    (stroke (width 0) (type default) (color 0 0 0 0))
    (uuid 3c0398da-83c4-47dd-9c56-43ab43faa060)
  )
  (wire (pts (xy 207.645 126.365) (xy 207.645 125.095))
    (stroke (width 0) (type default) (color 0 0 0 0))
    (uuid 3c4e7b86-5e5a-4f88-8e65-ab6805c2b646)
  )
  (wire (pts (xy 142.24 103.505) (xy 137.16 103.505))
    (stroke (width 0) (type default) (color 0 0 0 0))
    (uuid 3e64b3b6-1bc0-4586-a5cb-3a93333613e9)
  )
  (wire (pts (xy 135.255 72.39) (xy 137.16 72.39))
    (stroke (width 0) (type default) (color 0 0 0 0))
    (uuid 3e964ba9-8807-4ab9-8f26-e996e1506876)
  )
  (wire (pts (xy 173.99 92.075) (xy 173.99 93.345))
    (stroke (width 0) (type default) (color 0 0 0 0))
    (uuid 40e1c136-f68e-4bde-8dd4-dbe2a38471e4)
  )
  (wire (pts (xy 104.14 126.365) (xy 104.14 131.445))
    (stroke (width 0) (type default) (color 0 0 0 0))
    (uuid 4502970c-6c16-4029-a10c-18358f541d66)
  )
  (wire (pts (xy 138.43 131.445) (xy 142.24 131.445))
    (stroke (width 0) (type default) (color 0 0 0 0))
    (uuid 450a2397-cbf6-4747-a33d-2cd290b20573)
  )
  (wire (pts (xy 182.88 112.395) (xy 182.88 120.015))
    (stroke (width 0) (type default) (color 0 0 0 0))
    (uuid 453beac5-f118-4935-879a-041e27455c9c)
  )
  (wire (pts (xy 116.84 60.325) (xy 102.235 60.325))
    (stroke (width 0) (type default) (color 0 0 0 0))
    (uuid 470d2135-faff-40f4-9d3b-2c4ba34eb8f7)
  )
  (wire (pts (xy 126.365 84.455) (xy 126.365 85.725))
    (stroke (width 0) (type default) (color 0 0 0 0))
    (uuid 4816f8cf-04cc-453d-af6f-556b5ef83bd3)
  )
  (wire (pts (xy 167.64 104.775) (xy 167.64 86.995))
    (stroke (width 0) (type default) (color 0 0 0 0))
    (uuid 4a1e3c64-6238-44c5-bb2d-66443b0cb6d1)
  )
  (wire (pts (xy 90.805 69.85) (xy 90.805 71.12))
    (stroke (width 0) (type default) (color 0 0 0 0))
    (uuid 4f58edd5-1af1-4d8e-b10e-b3fb7651e28a)
  )
  (wire (pts (xy 99.695 100.965) (xy 99.695 106.045))
    (stroke (width 0) (type default) (color 0 0 0 0))
    (uuid 4f87493a-7e8c-4905-a371-3d3ee17419fc)
  )
  (wire (pts (xy 104.14 116.205) (xy 107.95 116.205))
    (stroke (width 0) (type default) (color 0 0 0 0))
    (uuid 5154144c-75da-4511-8f13-70a4dfd60f74)
  )
  (wire (pts (xy 156.845 84.455) (xy 175.26 84.455))
    (stroke (width 0) (type default) (color 0 0 0 0))
    (uuid 56b53f65-196b-4149-a6e9-c768b03d2fae)
  )
  (wire (pts (xy 100.33 74.93) (xy 99.06 74.93))
    (stroke (width 0) (type default) (color 0 0 0 0))
    (uuid 57ab44f9-2b0a-42b1-aabf-2de8be9409e4)
  )
  (wire (pts (xy 175.26 92.075) (xy 173.99 92.075))
    (stroke (width 0) (type default) (color 0 0 0 0))
    (uuid 5d61594e-cea6-4051-8b8c-abd85b012468)
  )
  (wire (pts (xy 99.695 106.045) (xy 117.475 106.045))
    (stroke (width 0) (type default) (color 0 0 0 0))
    (uuid 5df0419e-6645-499c-9cc4-5e896e72d5be)
  )
  (wire (pts (xy 116.84 72.39) (xy 116.84 60.325))
    (stroke (width 0) (type default) (color 0 0 0 0))
    (uuid 5e186307-32ed-4b13-b739-ca8f71b4e46d)
  )
  (wire (pts (xy 207.645 127.635) (xy 207.645 126.365))
    (stroke (width 0) (type default) (color 0 0 0 0))
    (uuid 6128a451-c63a-4fbd-a2e4-0d76a0724c6d)
  )
  (wire (pts (xy 191.77 120.015) (xy 200.025 120.015))
    (stroke (width 0) (type default) (color 0 0 0 0))
    (uuid 61c69da4-2b49-4713-9e16-e8c500992850)
  )
  (wire (pts (xy 175.26 81.915) (xy 172.72 81.915))
    (stroke (width 0) (type default) (color 0 0 0 0))
    (uuid 63f1177d-666b-4e4f-967f-a01877c35140)
  )
  (wire (pts (xy 97.79 86.36) (xy 83.185 86.36))
    (stroke (width 0) (type default) (color 0 0 0 0))
    (uuid 64c4f709-30de-4739-808b-dc3db70f8fae)
  )
  (wire (pts (xy 83.185 86.36) (xy 83.185 95.885))
    (stroke (width 0) (type default) (color 0 0 0 0))
    (uuid 65a6130a-4bef-465b-aa30-9512d8e8dd62)
  )
  (wire (pts (xy 89.535 95.885) (xy 91.44 95.885))
    (stroke (width 0) (type default) (color 0 0 0 0))
    (uuid 68848e26-3f98-433f-ada6-59c5ed98b97c)
  )
  (wire (pts (xy 115.57 72.39) (xy 116.84 72.39))
    (stroke (width 0) (type default) (color 0 0 0 0))
    (uuid 6b66e1f6-d6af-49c1-b914-96ed8010966b)
  )
  (wire (pts (xy 137.16 66.04) (xy 137.16 72.39))
    (stroke (width 0) (type default) (color 0 0 0 0))
    (uuid 6ce9edd1-3064-4c70-ab1c-2ccee5ebe1a3)
  )
  (wire (pts (xy 191.77 135.255) (xy 191.77 130.175))
    (stroke (width 0) (type default) (color 0 0 0 0))
    (uuid 7125b474-4849-42e0-911e-7a7895a5e085)
  )
  (wire (pts (xy 99.06 80.01) (xy 116.84 80.01))
    (stroke (width 0) (type default) (color 0 0 0 0))
    (uuid 72a0bd8d-2271-457f-84fb-219d27f1d80e)
  )
  (wire (pts (xy 200.025 135.255) (xy 200.025 130.175))
    (stroke (width 0) (type default) (color 0 0 0 0))
    (uuid 75923264-9259-4a5c-8b95-63bf057d64a1)
  )
  (wire (pts (xy 156.845 81.28) (xy 156.845 84.455))
    (stroke (width 0) (type default) (color 0 0 0 0))
    (uuid 7906dbc7-a9ce-4f88-8580-a31efe898367)
  )
  (wire (pts (xy 207.645 133.985) (xy 207.645 132.715))
    (stroke (width 0) (type default) (color 0 0 0 0))
    (uuid 7fdeed7a-6392-4ef7-a024-1496f2e1447e)
  )
  (wire (pts (xy 116.205 98.425) (xy 117.475 98.425))
    (stroke (width 0) (type default) (color 0 0 0 0))
    (uuid 80f7bc11-c196-48d6-8cd0-8e70aadd3725)
  )
  (wire (pts (xy 167.64 86.995) (xy 175.26 86.995))
    (stroke (width 0) (type default) (color 0 0 0 0))
    (uuid 816eb0b8-1641-45cd-a69f-8ea8f378d8aa)
  )
  (wire (pts (xy 200.025 120.015) (xy 200.025 125.095))
    (stroke (width 0) (type default) (color 0 0 0 0))
    (uuid 84e19454-beae-4003-b5b3-2ec2781db25b)
  )
  (wire (pts (xy 123.825 72.39) (xy 130.175 72.39))
    (stroke (width 0) (type default) (color 0 0 0 0))
    (uuid 8508621c-2552-4ed6-b135-51be31626863)
  )
  (wire (pts (xy 170.18 89.535) (xy 170.18 120.015))
    (stroke (width 0) (type default) (color 0 0 0 0))
    (uuid 87933edb-3237-4483-ba95-4e4fe51686ef)
  )
  (wire (pts (xy 83.185 95.885) (xy 84.455 95.885))
    (stroke (width 0) (type default) (color 0 0 0 0))
    (uuid 89558f47-9c48-42c4-9826-89149768db5d)
  )
  (wire (pts (xy 117.475 106.045) (xy 117.475 98.425))
    (stroke (width 0) (type default) (color 0 0 0 0))
    (uuid 8a6e37b6-2b88-4e5d-959d-7f08a4573fb3)
  )
  (wire (pts (xy 104.14 131.445) (xy 107.95 131.445))
    (stroke (width 0) (type default) (color 0 0 0 0))
    (uuid 8b3caefe-a94d-4d03-890b-f23ec3e8ff8f)
  )
  (wire (pts (xy 82.55 69.85) (xy 83.82 69.85))
    (stroke (width 0) (type default) (color 0 0 0 0))
    (uuid 96b8931a-158a-4c6c-9a0d-2482ec16624d)
  )
  (wire (pts (xy 191.77 120.015) (xy 191.77 112.395))
    (stroke (width 0) (type default) (color 0 0 0 0))
    (uuid 99e1af5f-c90e-4226-9183-724ac6c92c5a)
  )
  (wire (pts (xy 82.55 60.325) (xy 82.55 69.85))
    (stroke (width 0) (type default) (color 0 0 0 0))
    (uuid 9b8cdef1-b909-4fb0-bd8c-692617456ffd)
  )
  (wire (pts (xy 138.43 126.365) (xy 138.43 131.445))
    (stroke (width 0) (type default) (color 0 0 0 0))
    (uuid 9c4992b4-1cd7-4992-b2b7-0870e4580e6b)
  )
  (wire (pts (xy 138.43 116.205) (xy 142.24 116.205))
    (stroke (width 0) (type default) (color 0 0 0 0))
    (uuid 9dab5913-66d9-44cc-8773-22bfe7da5f74)
  )
  (wire (pts (xy 153.67 66.04) (xy 153.67 74.93))
    (stroke (width 0) (type default) (color 0 0 0 0))
    (uuid 9de8641b-26d0-439b-9ae6-d500bebcef25)
  )
  (wire (pts (xy 156.845 102.235) (xy 156.845 104.775))
    (stroke (width 0) (type default) (color 0 0 0 0))
    (uuid 9f5b2add-e4f0-4469-b84b-ff6ff387625a)
  )
  (wire (pts (xy 212.725 133.985) (xy 212.725 132.715))
    (stroke (width 0) (type default) (color 0 0 0 0))
    (uuid a206fdd2-a367-4c96-8b49-8e3e8c05afeb)
  )
  (wire (pts (xy 74.295 69.85) (xy 76.2 69.85))
    (stroke (width 0) (type default) (color 0 0 0 0))
    (uuid a8106e51-fd50-4b2e-be43-25fcda376c28)
  )
  (wire (pts (xy 117.475 98.425) (xy 118.745 98.425))
    (stroke (width 0) (type default) (color 0 0 0 0))
    (uuid aa08212c-b243-4d52-af5e-154098492cec)
  )
  (wire (pts (xy 191.77 120.015) (xy 191.77 125.095))
    (stroke (width 0) (type default) (color 0 0 0 0))
    (uuid b6e3b1ee-eead-4f59-b650-9c10d1392109)
  )
  (wire (pts (xy 91.44 95.885) (xy 100.965 95.885))
    (stroke (width 0) (type default) (color 0 0 0 0))
    (uuid b90bbf3f-8325-43c5-a7b3-bbc0a4651fd0)
  )
  (wire (pts (xy 142.875 66.04) (xy 137.16 66.04))
    (stroke (width 0) (type default) (color 0 0 0 0))
    (uuid bc3de77b-db92-4735-a96f-7dd68646e45f)
  )
  (wire (pts (xy 88.9 69.85) (xy 90.805 69.85))
    (stroke (width 0) (type default) (color 0 0 0 0))
    (uuid bee62447-9266-4060-8fff-d616eae79c2c)
  )
  (wire (pts (xy 90.805 69.85) (xy 100.33 69.85))
    (stroke (width 0) (type default) (color 0 0 0 0))
    (uuid beffc7a7-3597-42b2-96e0-a8c874f3f743)
  )
  (wire (pts (xy 147.955 66.04) (xy 153.67 66.04))
    (stroke (width 0) (type default) (color 0 0 0 0))
    (uuid c1edf1a9-5f15-4962-ab9d-2954c73b707b)
  )
  (wire (pts (xy 207.645 112.395) (xy 207.645 113.665))
    (stroke (width 0) (type default) (color 0 0 0 0))
    (uuid c2a7376f-4382-4a1c-82d4-4b20d5083919)
  )
  (wire (pts (xy 104.14 121.285) (xy 104.14 116.205))
    (stroke (width 0) (type default) (color 0 0 0 0))
    (uuid cde20cd4-c5b4-4612-835f-24b497657659)
  )
  (wire (pts (xy 189.865 120.015) (xy 191.77 120.015))
    (stroke (width 0) (type default) (color 0 0 0 0))
    (uuid cdf6746e-9ca7-477d-8283-2176e5e5b356)
  )
  (wire (pts (xy 123.825 98.425) (xy 130.81 98.425))
    (stroke (width 0) (type default) (color 0 0 0 0))
    (uuid d17a5ed0-48a1-4fca-b176-ab0abd8d62b1)
  )
  (wire (pts (xy 137.16 77.47) (xy 137.16 84.455))
    (stroke (width 0) (type default) (color 0 0 0 0))
    (uuid d4dbe016-5033-443d-9a01-662728b83c5f)
  )
  (wire (pts (xy 212.725 127.635) (xy 212.725 126.365))
    (stroke (width 0) (type default) (color 0 0 0 0))
    (uuid d5814e90-4711-411f-8ba2-c5bcb27651d0)
  )
  (wire (pts (xy 74.295 95.885) (xy 76.835 95.885))
    (stroke (width 0) (type default) (color 0 0 0 0))
    (uuid da5ae01f-4fee-4005-bf70-8ab7665d9c08)
  )
  (wire (pts (xy 116.84 72.39) (xy 118.745 72.39))
    (stroke (width 0) (type default) (color 0 0 0 0))
    (uuid e02972fa-ce65-4327-9ce2-237b9335948e)
  )
  (wire (pts (xy 153.67 95.885) (xy 156.845 95.885))
    (stroke (width 0) (type default) (color 0 0 0 0))
    (uuid e1ba2c95-15b5-494a-b2e9-97beca188dae)
  )
  (wire (pts (xy 99.06 74.93) (xy 99.06 80.01))
    (stroke (width 0) (type default) (color 0 0 0 0))
    (uuid e2944c83-adee-4502-9c71-2d516906f739)
  )
  (wire (pts (xy 207.645 113.665) (xy 222.885 113.665))
    (stroke (width 0) (type default) (color 0 0 0 0))
    (uuid e2ca2121-3860-4afb-b7a5-b71e32523192)
  )
  (wire (pts (xy 156.845 74.93) (xy 156.845 76.2))
    (stroke (width 0) (type default) (color 0 0 0 0))
    (uuid e5361d65-ed2f-430d-afb4-8de141dc7ba8)
  )
  (wire (pts (xy 170.18 66.675) (xy 170.18 67.945))
    (stroke (width 0) (type default) (color 0 0 0 0))
    (uuid e60dfefb-6751-4e66-8157-33c76d853763)
  )
  (wire (pts (xy 156.845 95.885) (xy 156.845 97.155))
    (stroke (width 0) (type default) (color 0 0 0 0))
    (uuid f31f3b50-c7dd-43c6-a575-140e92ee1424)
  )
  (wire (pts (xy 91.44 95.885) (xy 91.44 97.155))
    (stroke (width 0) (type default) (color 0 0 0 0))
    (uuid f71ad601-42d3-4726-9abe-5dc40526fc43)
  )
  (wire (pts (xy 178.435 66.675) (xy 170.18 66.675))
    (stroke (width 0) (type default) (color 0 0 0 0))
    (uuid f9c42ab7-db15-44cf-84d4-b3f96a037983)
  )
  (wire (pts (xy 133.985 85.725) (xy 133.985 84.455))
    (stroke (width 0) (type default) (color 0 0 0 0))
    (uuid ff533d14-7116-4c93-a501-955db6c82074)
  )

  (global_label "AUDIOR" (shape input) (at 74.295 95.885 180) (fields_autoplaced)
    (effects (font (size 1.27 1.27)) (justify right))
    (uuid 66cf991b-7749-4ae3-8606-8dff5d406bc9)
    (property "Intersheet References" "${INTERSHEET_REFS}" (id 0) (at 64.9876 95.8056 0)
      (effects (font (size 1.27 1.27)) (justify right))
    )
  )
  (global_label "MIC" (shape output) (at 222.885 113.665 0) (fields_autoplaced)
    (effects (font (size 1.27 1.27)) (justify left))
    (uuid 739c720f-86c8-432b-8823-1a671d0ee982)
    (property "Intersheet References" "${INTERSHEET_REFS}" (id 0) (at 228.6243 113.5856 0)
      (effects (font (size 1.27 1.27)) (justify left))
    )
  )
  (global_label "AUDIOL" (shape input) (at 74.295 69.85 180) (fields_autoplaced)
    (effects (font (size 1.27 1.27)) (justify right))
    (uuid deafdc22-cc7b-430a-a403-ed5987e22f55)
    (property "Intersheet References" "${INTERSHEET_REFS}" (id 0) (at 65.2295 69.7706 0)
      (effects (font (size 1.27 1.27)) (justify right))
    )
  )

  (symbol (lib_id "hfv-1:GND") (at 200.025 135.255 0) (unit 1)
    (in_bom yes) (on_board yes) (fields_autoplaced)
    (uuid 00599e8d-7538-41cc-8237-870fbef33d89)
    (property "Reference" "#PWR065" (id 0) (at 200.025 141.605 0)
      (effects (font (size 1.27 1.27)) hide)
    )
    (property "Value" "GND" (id 1) (at 200.025 139.7746 0))
    (property "Footprint" "" (id 2) (at 200.025 135.255 0)
      (effects (font (size 1.27 1.27)) hide)
    )
    (property "Datasheet" "" (id 3) (at 200.025 135.255 0)
      (effects (font (size 1.27 1.27)) hide)
    )
    (pin "1" (uuid 5c80799a-f1f2-4b17-abc8-4f0bc2ba1e59))
  )

  (symbol (lib_id "Device:C_Small") (at 133.985 88.265 0) (mirror y) (unit 1)
    (in_bom yes) (on_board yes)
    (uuid 07a5f4ce-439a-4a8f-a730-e8cff86dea3c)
    (property "Reference" "C15" (id 0) (at 131.6609 87.3628 0)
      (effects (font (size 1.27 1.27)) (justify left))
    )
    (property "Value" "1u" (id 1) (at 131.6609 90.1379 0)
      (effects (font (size 1.27 1.27)) (justify left))
    )
    (property "Footprint" "Capacitor_SMD:C_0805_2012Metric" (id 2) (at 133.985 88.265 0)
      (effects (font (size 1.27 1.27)) hide)
    )
    (property "Datasheet" "~" (id 3) (at 133.985 88.265 0)
      (effects (font (size 1.27 1.27)) hide)
    )
    (property "Tolerance" "*" (id 4) (at 133.985 88.265 0)
      (effects (font (size 1.27 1.27)) hide)
    )
    (property "Digikey part" "inv" (id 5) (at 133.985 88.265 0)
      (effects (font (size 1.27 1.27)) hide)
    )
    (pin "1" (uuid 619ca6c3-14b2-45e4-aeee-c36d747feeb8))
    (pin "2" (uuid eab271a4-0005-48ec-8a97-83d630f72a4b))
  )

  (symbol (lib_id "Device:C_Polarized_Small_US") (at 156.845 99.695 0) (unit 1)
    (in_bom yes) (on_board yes) (fields_autoplaced)
    (uuid 0832bc4d-48a7-4f3f-8f47-fc1fb12bc2ec)
    (property "Reference" "C17" (id 0) (at 159.1564 98.4285 0)
      (effects (font (size 1.27 1.27)) (justify left))
    )
    (property "Value" "470u" (id 1) (at 159.1564 100.9654 0)
      (effects (font (size 1.27 1.27)) (justify left))
    )
    (property "Footprint" "Capacitor_THT:CP_Radial_D6.3mm_P2.50mm" (id 2) (at 156.845 99.695 0)
      (effects (font (size 1.27 1.27)) hide)
    )
    (property "Datasheet" "~" (id 3) (at 156.845 99.695 0)
      (effects (font (size 1.27 1.27)) hide)
    )
    (property "Digikey part" "732-8708-1-ND" (id 4) (at 156.845 99.695 0)
      (effects (font (size 1.27 1.27)) hide)
    )
    (property "Tolerance" "*" (id 5) (at 156.845 99.695 0)
      (effects (font (size 1.27 1.27)) hide)
    )
    (pin "1" (uuid 0f334f58-1267-4445-81a0-1a2b9367b3fe))
    (pin "2" (uuid 36cfa09f-61f4-4a15-a6ce-a6bfb3bc012e))
  )

  (symbol (lib_id "Device:R_Small_US") (at 86.995 95.885 270) (unit 1)
    (in_bom yes) (on_board yes) (fields_autoplaced)
    (uuid 0f17d129-eb09-4230-ace5-41cdbc0d3259)
    (property "Reference" "R26" (id 0) (at 86.995 91.2962 90))
    (property "Value" "15K" (id 1) (at 86.995 93.8331 90))
    (property "Footprint" "Resistor_SMD:R_0805_2012Metric" (id 2) (at 86.995 95.885 0)
      (effects (font (size 1.27 1.27)) hide)
    )
    (property "Datasheet" "~" (id 3) (at 86.995 95.885 0)
      (effects (font (size 1.27 1.27)) hide)
    )
    (property "Tolerance" "1%" (id 4) (at 86.995 95.885 0)
      (effects (font (size 1.27 1.27)) hide)
    )
    (property "Digikey part" "311-15.0KCRCT-ND" (id 5) (at 86.995 95.885 0)
      (effects (font (size 1.27 1.27)) hide)
    )
    (pin "1" (uuid 7538f50f-d6af-4811-a8bb-6a53b6b751c8))
    (pin "2" (uuid c0780310-80f0-45f9-bb62-dc91f73dffa4))
  )

  (symbol (lib_id "Device:C_Small") (at 121.285 98.425 90) (unit 1)
    (in_bom yes) (on_board yes) (fields_autoplaced)
    (uuid 138207b0-7bec-4061-a4ce-482b0fc81492)
    (property "Reference" "C20" (id 0) (at 121.2913 102.0175 90))
    (property "Value" "1u" (id 1) (at 121.2913 104.5544 90))
    (property "Footprint" "Capacitor_SMD:C_0805_2012Metric" (id 2) (at 121.285 98.425 0)
      (effects (font (size 1.27 1.27)) hide)
    )
    (property "Datasheet" "~" (id 3) (at 121.285 98.425 0)
      (effects (font (size 1.27 1.27)) hide)
    )
    (property "Tolerance" "*" (id 4) (at 121.285 98.425 0)
      (effects (font (size 1.27 1.27)) hide)
    )
    (property "Digikey part" "inv" (id 5) (at 121.285 98.425 0)
      (effects (font (size 1.27 1.27)) hide)
    )
    (pin "1" (uuid 1a8db9c7-28be-419b-9a4d-c321f83a9b39))
    (pin "2" (uuid e3d8b8da-f865-435c-959f-e18abb3f067f))
  )

  (symbol (lib_id "Device:R_Small_US") (at 133.35 98.425 270) (unit 1)
    (in_bom yes) (on_board yes) (fields_autoplaced)
    (uuid 1b4f1e2f-265c-4838-b9da-9af8c6a78262)
    (property "Reference" "R27" (id 0) (at 133.35 101.3444 90))
    (property "Value" "10K" (id 1) (at 133.35 103.8813 90))
    (property "Footprint" "Resistor_SMD:R_0805_2012Metric" (id 2) (at 133.35 98.425 0)
      (effects (font (size 1.27 1.27)) hide)
    )
    (property "Datasheet" "~" (id 3) (at 133.35 98.425 0)
      (effects (font (size 1.27 1.27)) hide)
    )
    (property "Digikey part" "inv" (id 4) (at 133.35 98.425 0)
      (effects (font (size 1.27 1.27)) hide)
    )
    (property "Tolerance" "*" (id 5) (at 133.35 98.425 0)
      (effects (font (size 1.27 1.27)) hide)
    )
    (pin "1" (uuid 2b498e27-fd5d-420e-971b-85fa1afa132c))
    (pin "2" (uuid 0844ef8a-c118-4622-b66c-3c99fd7dad2d))
  )

  (symbol (lib_id "power:+5V") (at 107.95 116.205 0) (unit 1)
    (in_bom yes) (on_board yes) (fields_autoplaced)
    (uuid 21749be5-54cf-4d03-acb6-6002bebd6ef6)
    (property "Reference" "#PWR0133" (id 0) (at 107.95 120.015 0)
      (effects (font (size 1.27 1.27)) hide)
    )
    (property "Value" "+5V" (id 1) (at 107.95 112.6292 0))
    (property "Footprint" "" (id 2) (at 107.95 116.205 0)
      (effects (font (size 1.27 1.27)) hide)
    )
    (property "Datasheet" "" (id 3) (at 107.95 116.205 0)
      (effects (font (size 1.27 1.27)) hide)
    )
    (pin "1" (uuid d5b5bd4a-3762-45c5-bbb8-e6b2345698b3))
  )

  (symbol (lib_id "hfv-1:LM4808") (at 144.78 123.825 0) (unit 3)
    (in_bom yes) (on_board yes)
    (uuid 25188f85-4ec9-4d96-8c51-cb53e01fa668)
    (property "Reference" "U3" (id 0) (at 144.145 122.5581 0)
      (effects (font (size 1.27 1.27)) (justify left))
    )
    (property "Value" "LM4808" (id 1) (at 144.145 125.095 0)
      (effects (font (size 1.27 1.27)) (justify left))
    )
    (property "Footprint" "Package_SO:SO-8_3.9x4.9mm_P1.27mm" (id 2) (at 144.78 123.825 0)
      (effects (font (size 1.27 1.27)) hide)
    )
    (property "Datasheet" "https://www.ti.com/lit/ds/symlink/lm4808.pdf" (id 3) (at 144.78 123.825 0)
      (effects (font (size 1.27 1.27)) hide)
    )
    (pin "4" (uuid 4d0daaf3-663d-4a47-aed6-60828b2a8437))
    (pin "8" (uuid f45f945b-e619-4342-93a3-1425c714083d))
  )

  (symbol (lib_id "hfv-1:AD8616") (at 110.49 123.825 0) (unit 3)
    (in_bom yes) (on_board yes)
    (uuid 28a8677f-6f9d-4a13-98c7-f93d34ff8ffa)
    (property "Reference" "U2" (id 0) (at 109.855 122.5581 0)
      (effects (font (size 1.27 1.27)) (justify left))
    )
    (property "Value" "AD8616" (id 1) (at 109.855 125.095 0)
      (effects (font (size 1.27 1.27)) (justify left))
    )
    (property "Footprint" "Package_SO:SOIC-8_3.9x4.9mm_P1.27mm" (id 2) (at 110.49 123.825 0)
      (effects (font (size 1.27 1.27)) hide)
    )
    (property "Datasheet" "https://www.analog.com/media/en/technical-documentation/data-sheets/AD8615_8616_8618.pdf" (id 3) (at 110.49 123.825 0)
      (effects (font (size 1.27 1.27)) hide)
    )
    (property "Digikey part" "505-AD8616ARZ-REELCT-ND" (id 4) (at 110.49 123.825 0)
      (effects (font (size 1.27 1.27)) hide)
    )
    (pin "4" (uuid 99d543de-2c4c-496e-b8e2-5086799a2f33))
    (pin "8" (uuid 1156d36a-0604-4ad0-80d4-35797313e8d3))
  )

  (symbol (lib_id "Device:R_Small_US") (at 126.365 88.265 0) (unit 1)
    (in_bom yes) (on_board yes) (fields_autoplaced)
    (uuid 2e8e7b94-bc3a-4961-ba35-af4e2a5da07a)
    (property "Reference" "R28" (id 0) (at 124.714 87.4303 0)
      (effects (font (size 1.27 1.27)) (justify right))
    )
    (property "Value" "100K" (id 1) (at 124.714 89.9672 0)
      (effects (font (size 1.27 1.27)) (justify right))
    )
    (property "Footprint" "Resistor_SMD:R_0805_2012Metric" (id 2) (at 126.365 88.265 0)
      (effects (font (size 1.27 1.27)) hide)
    )
    (property "Datasheet" "~" (id 3) (at 126.365 88.265 0)
      (effects (font (size 1.27 1.27)) hide)
    )
    (property "Tolerance" "1%" (id 4) (at 126.365 88.265 0)
      (effects (font (size 1.27 1.27)) hide)
    )
    (property "Digikey part" "311-100KCRCT-ND" (id 5) (at 126.365 88.265 0)
      (effects (font (size 1.27 1.27)) hide)
    )
    (pin "1" (uuid 7f7eb642-5d40-4f8c-9a29-b223324d6bc3))
    (pin "2" (uuid f2d4ec35-0b03-4fe8-8c54-f1e447a208de))
  )

  (symbol (lib_id "power:+5V") (at 142.24 116.205 0) (unit 1)
    (in_bom yes) (on_board yes) (fields_autoplaced)
    (uuid 3f1691ef-39c1-4873-9918-17ad2e584ee6)
    (property "Reference" "#PWR0135" (id 0) (at 142.24 120.015 0)
      (effects (font (size 1.27 1.27)) hide)
    )
    (property "Value" "+5V" (id 1) (at 142.24 112.6292 0))
    (property "Footprint" "" (id 2) (at 142.24 116.205 0)
      (effects (font (size 1.27 1.27)) hide)
    )
    (property "Datasheet" "" (id 3) (at 142.24 116.205 0)
      (effects (font (size 1.27 1.27)) hide)
    )
    (pin "1" (uuid 5949ad24-e76b-4809-9bff-65f648fe28f0))
  )

  (symbol (lib_id "Device:C_Small") (at 99.695 60.325 90) (unit 1)
    (in_bom yes) (on_board yes) (fields_autoplaced)
    (uuid 458e112f-e859-4b9b-893f-2106fdcd931d)
    (property "Reference" "C10" (id 0) (at 99.7013 55.0631 90))
    (property "Value" "4n7" (id 1) (at 99.7013 57.6 90))
    (property "Footprint" "Capacitor_SMD:C_0805_2012Metric" (id 2) (at 99.695 60.325 0)
      (effects (font (size 1.27 1.27)) hide)
    )
    (property "Datasheet" "~" (id 3) (at 99.695 60.325 0)
      (effects (font (size 1.27 1.27)) hide)
    )
    (property "Tolerance" "1%, NP0" (id 4) (at 99.695 60.325 0)
      (effects (font (size 1.27 1.27)) hide)
    )
    (property "Digikey part" "478-12766-1-ND" (id 5) (at 99.695 60.325 0)
      (effects (font (size 1.27 1.27)) hide)
    )
    (pin "1" (uuid c805527f-0536-46ff-a037-f08863135c7e))
    (pin "2" (uuid 3efb6a0e-da7f-487e-afe9-7d7b483456c7))
  )

  (symbol (lib_id "Device:C_Small") (at 200.025 127.635 0) (unit 1)
    (in_bom yes) (on_board yes) (fields_autoplaced)
    (uuid 4a235089-f421-4e4c-b110-610eb99c7e0b)
    (property "Reference" "C31" (id 0) (at 197.7009 126.8066 0)
      (effects (font (size 1.27 1.27)) (justify right))
    )
    (property "Value" "1n" (id 1) (at 197.7009 129.3435 0)
      (effects (font (size 1.27 1.27)) (justify right))
    )
    (property "Footprint" "Capacitor_SMD:C_0805_2012Metric" (id 2) (at 200.025 127.635 0)
      (effects (font (size 1.27 1.27)) hide)
    )
    (property "Datasheet" "~" (id 3) (at 200.025 127.635 0)
      (effects (font (size 1.27 1.27)) hide)
    )
    (property "Digikey part" "inv" (id 4) (at 200.025 127.635 0)
      (effects (font (size 1.27 1.27)) hide)
    )
    (property "Tolerance" "*" (id 5) (at 200.025 127.635 0)
      (effects (font (size 1.27 1.27)) hide)
    )
    (pin "1" (uuid fabe8eed-7d59-42b3-adad-92578e114e83))
    (pin "2" (uuid 616ebc47-46b9-479c-ad3f-fac2acd67863))
  )

  (symbol (lib_id "Device:C_Small") (at 187.325 120.015 90) (unit 1)
    (in_bom yes) (on_board yes)
    (uuid 4bf8bb35-02a8-4342-9ff6-17ea4415fde2)
    (property "Reference" "C32" (id 0) (at 188.595 117.475 90)
      (effects (font (size 1.27 1.27)) (justify left))
    )
    (property "Value" "1u" (id 1) (at 188.595 123.19 90)
      (effects (font (size 1.27 1.27)) (justify left))
    )
    (property "Footprint" "Capacitor_SMD:C_0805_2012Metric" (id 2) (at 187.325 120.015 0)
      (effects (font (size 1.27 1.27)) hide)
    )
    (property "Datasheet" "~" (id 3) (at 187.325 120.015 0)
      (effects (font (size 1.27 1.27)) hide)
    )
    (property "Tolerance" "*" (id 4) (at 187.325 120.015 0)
      (effects (font (size 1.27 1.27)) hide)
    )
    (property "Digikey part" "inv" (id 5) (at 187.325 120.015 0)
      (effects (font (size 1.27 1.27)) hide)
    )
    (pin "1" (uuid de5530a3-808d-4889-a3a6-5c0cdcecead4))
    (pin "2" (uuid 67740d4f-066a-4632-a1fe-6366dbb149a6))
  )

  (symbol (lib_id "hfv-1:GND") (at 173.99 93.345 0) (unit 1)
    (in_bom yes) (on_board yes)
    (uuid 4ccb976e-7b65-404b-a86b-ced775e62acf)
    (property "Reference" "#PWR019" (id 0) (at 173.99 99.695 0)
      (effects (font (size 1.27 1.27)) hide)
    )
    (property "Value" "GND" (id 1) (at 173.99 97.9837 0))
    (property "Footprint" "" (id 2) (at 173.99 93.345 0)
      (effects (font (size 1.27 1.27)) hide)
    )
    (property "Datasheet" "" (id 3) (at 173.99 93.345 0)
      (effects (font (size 1.27 1.27)) hide)
    )
    (pin "1" (uuid 1a1f3362-643b-467d-9e29-f43e5ef7ec81))
  )

  (symbol (lib_id "Device:C_Small") (at 90.805 73.66 0) (unit 1)
    (in_bom yes) (on_board yes) (fields_autoplaced)
    (uuid 51c293d2-3011-471f-82d2-56565d6a9fd8)
    (property "Reference" "C8" (id 0) (at 93.1291 72.8316 0)
      (effects (font (size 1.27 1.27)) (justify left))
    )
    (property "Value" "470p" (id 1) (at 93.1291 75.3685 0)
      (effects (font (size 1.27 1.27)) (justify left))
    )
    (property "Footprint" "Capacitor_SMD:C_0805_2012Metric" (id 2) (at 90.805 73.66 0)
      (effects (font (size 1.27 1.27)) hide)
    )
    (property "Datasheet" "~" (id 3) (at 90.805 73.66 0)
      (effects (font (size 1.27 1.27)) hide)
    )
    (property "Tolerance" "1%, NP0" (id 4) (at 90.805 73.66 0)
      (effects (font (size 1.27 1.27)) hide)
    )
    (property "Digikey part" "732-7856-1-ND" (id 5) (at 90.805 73.66 0)
      (effects (font (size 1.27 1.27)) hide)
    )
    (pin "1" (uuid 3520c317-dec1-4695-8ca6-48201d986343))
    (pin "2" (uuid 125a3926-f7b5-436e-95bb-7e1ae3b82654))
  )

  (symbol (lib_id "power:+3V3") (at 207.645 107.315 0) (unit 1)
    (in_bom yes) (on_board yes) (fields_autoplaced)
    (uuid 521ea28f-5bbb-4814-9022-2c9a297d240d)
    (property "Reference" "#PWR0183" (id 0) (at 207.645 111.125 0)
      (effects (font (size 1.27 1.27)) hide)
    )
    (property "Value" "+3V3" (id 1) (at 207.645 103.7392 0))
    (property "Footprint" "" (id 2) (at 207.645 107.315 0)
      (effects (font (size 1.27 1.27)) hide)
    )
    (property "Datasheet" "" (id 3) (at 207.645 107.315 0)
      (effects (font (size 1.27 1.27)) hide)
    )
    (pin "1" (uuid 1df38343-04c2-4870-ace2-cd37c9c34bca))
  )

  (symbol (lib_id "hfv-1:GND") (at 207.645 135.255 0) (unit 1)
    (in_bom yes) (on_board yes) (fields_autoplaced)
    (uuid 52537aed-d3e6-4b8e-a29c-78c45189475d)
    (property "Reference" "#PWR0184" (id 0) (at 207.645 141.605 0)
      (effects (font (size 1.27 1.27)) hide)
    )
    (property "Value" "GND" (id 1) (at 207.645 139.7746 0))
    (property "Footprint" "" (id 2) (at 207.645 135.255 0)
      (effects (font (size 1.27 1.27)) hide)
    )
    (property "Datasheet" "" (id 3) (at 207.645 135.255 0)
      (effects (font (size 1.27 1.27)) hide)
    )
    (pin "1" (uuid f0f501d8-26d4-4c22-ba35-40ecb659e3f9))
  )

  (symbol (lib_id "Device:C_Polarized_Small_US") (at 156.845 78.74 0) (unit 1)
    (in_bom yes) (on_board yes) (fields_autoplaced)
    (uuid 59d8ce4b-373b-480d-bc57-8ef77e4d8928)
    (property "Reference" "C4" (id 0) (at 159.1564 77.4735 0)
      (effects (font (size 1.27 1.27)) (justify left))
    )
    (property "Value" "470u" (id 1) (at 159.1564 80.0104 0)
      (effects (font (size 1.27 1.27)) (justify left))
    )
    (property "Footprint" "Capacitor_THT:CP_Radial_D6.3mm_P2.50mm" (id 2) (at 156.845 78.74 0)
      (effects (font (size 1.27 1.27)) hide)
    )
    (property "Datasheet" "~" (id 3) (at 156.845 78.74 0)
      (effects (font (size 1.27 1.27)) hide)
    )
    (property "Digikey part" "732-8708-1-ND" (id 4) (at 156.845 78.74 0)
      (effects (font (size 1.27 1.27)) hide)
    )
    (property "Tolerance" "*" (id 5) (at 156.845 78.74 0)
      (effects (font (size 1.27 1.27)) hide)
    )
    (pin "1" (uuid b0cdb0d6-2e4a-473a-9204-0d70fc2fa4c8))
    (pin "2" (uuid 598152d0-a947-4676-920c-4b38e6da29f4))
  )

  (symbol (lib_id "Device:R_Small_US") (at 86.36 69.85 270) (unit 1)
    (in_bom yes) (on_board yes) (fields_autoplaced)
    (uuid 5ba565dd-965c-4776-bdf2-66794b028b39)
    (property "Reference" "R18" (id 0) (at 86.36 65.2612 90))
    (property "Value" "15K" (id 1) (at 86.36 67.7981 90))
    (property "Footprint" "Resistor_SMD:R_0805_2012Metric" (id 2) (at 86.36 69.85 0)
      (effects (font (size 1.27 1.27)) hide)
    )
    (property "Datasheet" "~" (id 3) (at 86.36 69.85 0)
      (effects (font (size 1.27 1.27)) hide)
    )
    (property "Tolerance" "1%" (id 4) (at 86.36 69.85 0)
      (effects (font (size 1.27 1.27)) hide)
    )
    (property "Digikey part" "311-15.0KCRCT-ND" (id 5) (at 86.36 69.85 0)
      (effects (font (size 1.27 1.27)) hide)
    )
    (pin "1" (uuid 12f785d3-6c35-4f63-bc79-e3588da650e5))
    (pin "2" (uuid 7d3da77d-23e2-4de0-8503-bfab532eb571))
  )

  (symbol (lib_id "hfv-1:GND") (at 126.365 90.805 0) (unit 1)
    (in_bom yes) (on_board yes)
    (uuid 5fd3ff89-d15e-4c5d-8ce5-7b4830b6a544)
    (property "Reference" "#PWR0138" (id 0) (at 126.365 97.155 0)
      (effects (font (size 1.27 1.27)) hide)
    )
    (property "Value" "GND" (id 1) (at 122.555 92.71 0))
    (property "Footprint" "" (id 2) (at 126.365 90.805 0)
      (effects (font (size 1.27 1.27)) hide)
    )
    (property "Datasheet" "" (id 3) (at 126.365 90.805 0)
      (effects (font (size 1.27 1.27)) hide)
    )
    (pin "1" (uuid 57d4269b-5c36-4627-a933-6d07678beed5))
  )

  (symbol (lib_id "hfv-1:AD8616") (at 108.585 98.425 0) (unit 2)
    (in_bom yes) (on_board yes) (fields_autoplaced)
    (uuid 62e3f089-4a4d-485a-b92a-dc807007df03)
    (property "Reference" "U2" (id 0) (at 108.585 89.6452 0))
    (property "Value" "AD8616" (id 1) (at 108.585 92.1821 0))
    (property "Footprint" "Package_SO:SOIC-8_3.9x4.9mm_P1.27mm" (id 2) (at 108.585 98.425 0)
      (effects (font (size 1.27 1.27)) hide)
    )
    (property "Datasheet" "https://www.analog.com/media/en/technical-documentation/data-sheets/AD8615_8616_8618.pdf" (id 3) (at 108.585 98.425 0)
      (effects (font (size 1.27 1.27)) hide)
    )
    (property "Digikey part" "505-AD8616ARZ-REELCT-ND" (id 4) (at 108.585 98.425 0)
      (effects (font (size 1.27 1.27)) hide)
    )
    (pin "5" (uuid 6115c6a8-7788-4b22-9458-d7f17ea1221b))
    (pin "6" (uuid 863af3e7-fb6e-445d-8fe9-ce02b835d515))
    (pin "7" (uuid 96a5ceb4-5f3e-40c1-9091-9e653f78b7b2))
  )

  (symbol (lib_id "hfv-1:GND") (at 142.24 131.445 0) (unit 1)
    (in_bom yes) (on_board yes) (fields_autoplaced)
    (uuid 666a3883-d91b-474a-9dce-ec6f9ba07b95)
    (property "Reference" "#PWR0136" (id 0) (at 142.24 137.795 0)
      (effects (font (size 1.27 1.27)) hide)
    )
    (property "Value" "GND" (id 1) (at 142.24 135.9646 0))
    (property "Footprint" "" (id 2) (at 142.24 131.445 0)
      (effects (font (size 1.27 1.27)) hide)
    )
    (property "Datasheet" "" (id 3) (at 142.24 131.445 0)
      (effects (font (size 1.27 1.27)) hide)
    )
    (pin "1" (uuid 8533abcd-c2bf-49d4-8dce-9d0d96e236ee))
  )

  (symbol (lib_id "hfv-1:GND") (at 133.985 90.805 0) (unit 1)
    (in_bom yes) (on_board yes)
    (uuid 66eb0034-1771-4379-aa54-57dab178bc00)
    (property "Reference" "#PWR0139" (id 0) (at 133.985 97.155 0)
      (effects (font (size 1.27 1.27)) hide)
    )
    (property "Value" "GND" (id 1) (at 130.175 92.71 0))
    (property "Footprint" "" (id 2) (at 133.985 90.805 0)
      (effects (font (size 1.27 1.27)) hide)
    )
    (property "Datasheet" "" (id 3) (at 133.985 90.805 0)
      (effects (font (size 1.27 1.27)) hide)
    )
    (pin "1" (uuid b983319d-b54c-457b-aab6-460a6d2e9add))
  )

  (symbol (lib_id "hfv-1:GND") (at 91.44 102.235 0) (unit 1)
    (in_bom yes) (on_board yes) (fields_autoplaced)
    (uuid 717cc4cb-acec-408c-8744-ec17e4ac0431)
    (property "Reference" "#PWR059" (id 0) (at 91.44 108.585 0)
      (effects (font (size 1.27 1.27)) hide)
    )
    (property "Value" "GND" (id 1) (at 91.44 106.8737 0))
    (property "Footprint" "" (id 2) (at 91.44 102.235 0)
      (effects (font (size 1.27 1.27)) hide)
    )
    (property "Datasheet" "" (id 3) (at 91.44 102.235 0)
      (effects (font (size 1.27 1.27)) hide)
    )
    (pin "1" (uuid cb360a93-67e4-43f7-89df-bd243b2c8738))
  )

  (symbol (lib_id "Device:C_Small") (at 212.725 130.175 0) (unit 1)
    (in_bom yes) (on_board yes) (fields_autoplaced)
    (uuid 73b4fe72-da07-4d55-b3d5-c6feede50038)
    (property "Reference" "C22" (id 0) (at 215.0491 129.3466 0)
      (effects (font (size 1.27 1.27)) (justify left))
    )
    (property "Value" "10u" (id 1) (at 215.0491 131.8835 0)
      (effects (font (size 1.27 1.27)) (justify left))
    )
    (property "Footprint" "Capacitor_SMD:C_0805_2012Metric" (id 2) (at 212.725 130.175 0)
      (effects (font (size 1.27 1.27)) hide)
    )
    (property "Datasheet" "~" (id 3) (at 212.725 130.175 0)
      (effects (font (size 1.27 1.27)) hide)
    )
    (property "Digikey part" "inv" (id 4) (at 212.725 130.175 0)
      (effects (font (size 1.27 1.27)) hide)
    )
    (property "Tolerance" "*" (id 5) (at 212.725 130.175 0)
      (effects (font (size 1.27 1.27)) hide)
    )
    (pin "1" (uuid 0824c15d-db6e-44d1-b203-ad9de9e8fcba))
    (pin "2" (uuid d4bf7c0e-9489-48ad-9014-2519c0904b3d))
  )

  (symbol (lib_id "hfv-1:AD8616") (at 107.95 72.39 0) (unit 1)
    (in_bom yes) (on_board yes) (fields_autoplaced)
    (uuid 77b869b4-ea97-478a-9c96-85d574b2b526)
    (property "Reference" "U2" (id 0) (at 107.95 63.6102 0))
    (property "Value" "AD8616" (id 1) (at 107.95 66.1471 0))
    (property "Footprint" "Package_SO:SOIC-8_3.9x4.9mm_P1.27mm" (id 2) (at 107.95 72.39 0)
      (effects (font (size 1.27 1.27)) hide)
    )
    (property "Datasheet" "https://www.analog.com/media/en/technical-documentation/data-sheets/AD8615_8616_8618.pdf" (id 3) (at 107.95 72.39 0)
      (effects (font (size 1.27 1.27)) hide)
    )
    (property "Digikey part" "505-AD8616ARZ-REELCT-ND" (id 4) (at 107.95 72.39 0)
      (effects (font (size 1.27 1.27)) hide)
    )
    (pin "1" (uuid 2712541d-a4ec-4aad-9b1f-4b8249b9a383))
    (pin "2" (uuid 4b277c19-bd36-4eeb-9e4d-69b78a9c7a09))
    (pin "3" (uuid c2716c01-4495-45df-ba67-758e2c7b141f))
  )

  (symbol (lib_id "Device:C_Small") (at 138.43 123.825 0) (mirror y) (unit 1)
    (in_bom yes) (on_board yes) (fields_autoplaced)
    (uuid 7b7686bc-62db-4756-a60c-2a44d69edb52)
    (property "Reference" "C21" (id 0) (at 136.1059 122.9966 0)
      (effects (font (size 1.27 1.27)) (justify left))
    )
    (property "Value" "100n" (id 1) (at 136.1059 125.5335 0)
      (effects (font (size 1.27 1.27)) (justify left))
    )
    (property "Footprint" "Capacitor_SMD:C_0805_2012Metric" (id 2) (at 138.43 123.825 0)
      (effects (font (size 1.27 1.27)) hide)
    )
    (property "Datasheet" "~" (id 3) (at 138.43 123.825 0)
      (effects (font (size 1.27 1.27)) hide)
    )
    (property "Digikey part" "inv" (id 4) (at 138.43 123.825 0)
      (effects (font (size 1.27 1.27)) hide)
    )
    (property "Tolerance" "*" (id 5) (at 138.43 123.825 0)
      (effects (font (size 1.27 1.27)) hide)
    )
    (pin "1" (uuid c090bed1-0827-4c34-aa85-d969f85b962b))
    (pin "2" (uuid c6e0dd15-2f7d-4ec6-953a-b9477ea5ef2e))
  )

  (symbol (lib_id "Device:R_Small_US") (at 145.415 66.04 270) (unit 1)
    (in_bom yes) (on_board yes) (fields_autoplaced)
    (uuid 7cb2214b-1531-45ae-b7dc-2fd34efb8ba9)
    (property "Reference" "R19" (id 0) (at 145.415 61.4512 90))
    (property "Value" "15K" (id 1) (at 145.415 63.9881 90))
    (property "Footprint" "Resistor_SMD:R_0805_2012Metric" (id 2) (at 145.415 66.04 0)
      (effects (font (size 1.27 1.27)) hide)
    )
    (property "Datasheet" "~" (id 3) (at 145.415 66.04 0)
      (effects (font (size 1.27 1.27)) hide)
    )
    (property "Tolerance" "1%" (id 4) (at 145.415 66.04 0)
      (effects (font (size 1.27 1.27)) hide)
    )
    (property "Digikey part" "311-15.0KCRCT-ND" (id 5) (at 145.415 66.04 0)
      (effects (font (size 1.27 1.27)) hide)
    )
    (pin "1" (uuid 1494efe9-2b48-43d7-9c3c-2d2b7eaf0db4))
    (pin "2" (uuid df120b14-72be-4df3-a69e-22a6fdb96cf1))
  )

  (symbol (lib_id "Device:R_Small_US") (at 126.365 81.28 0) (unit 1)
    (in_bom yes) (on_board yes) (fields_autoplaced)
    (uuid 7f601ccd-3eae-4d22-a693-293a5f9a4fd9)
    (property "Reference" "R24" (id 0) (at 121.285 80.01 0)
      (effects (font (size 1.27 1.27)) (justify left))
    )
    (property "Value" "100K" (id 1) (at 120.015 81.915 0)
      (effects (font (size 1.27 1.27)) (justify left))
    )
    (property "Footprint" "Resistor_SMD:R_0805_2012Metric" (id 2) (at 126.365 81.28 0)
      (effects (font (size 1.27 1.27)) hide)
    )
    (property "Datasheet" "~" (id 3) (at 126.365 81.28 0)
      (effects (font (size 1.27 1.27)) hide)
    )
    (property "Tolerance" "1%" (id 4) (at 126.365 81.28 0)
      (effects (font (size 1.27 1.27)) hide)
    )
    (property "Digikey part" "311-100KCRCT-ND" (id 5) (at 126.365 81.28 0)
      (effects (font (size 1.27 1.27)) hide)
    )
    (pin "1" (uuid 46e76d83-7182-442a-8290-8af5fbfed496))
    (pin "2" (uuid 0e549f96-cb1f-462f-bae4-fe5a8fa8dc70))
  )

  (symbol (lib_id "hfv-1:LM4808") (at 144.78 74.93 0) (mirror x) (unit 1)
    (in_bom yes) (on_board yes) (fields_autoplaced)
    (uuid 83aba653-f1e3-4721-a173-3625ca1b79a8)
    (property "Reference" "U3" (id 0) (at 144.78 80.01 0))
    (property "Value" "LM4808" (id 1) (at 144.78 82.5469 0))
    (property "Footprint" "Package_SO:SO-8_3.9x4.9mm_P1.27mm" (id 2) (at 144.78 74.93 0)
      (effects (font (size 1.27 1.27)) hide)
    )
    (property "Datasheet" "https://www.ti.com/lit/ds/symlink/lm4808.pdf" (id 3) (at 144.78 74.93 0)
      (effects (font (size 1.27 1.27)) hide)
    )
    (pin "1" (uuid 95cc42f2-f113-493b-b036-4fea422ff39d))
    (pin "2" (uuid a4045443-0ede-43c0-ab26-310750ecff05))
    (pin "3" (uuid ad6c4f92-4f5a-418e-90ef-659a1140d8c3))
  )

  (symbol (lib_id "Device:R_Small_US") (at 132.715 72.39 270) (unit 1)
    (in_bom yes) (on_board yes)
    (uuid 8cb7e358-2e91-4b4c-9bfd-2e1d0205783d)
    (property "Reference" "R20" (id 0) (at 131.445 74.93 90)
      (effects (font (size 1.27 1.27)) (justify left))
    )
    (property "Value" "10K" (id 1) (at 130.81 76.835 90)
      (effects (font (size 1.27 1.27)) (justify left))
    )
    (property "Footprint" "Resistor_SMD:R_0805_2012Metric" (id 2) (at 132.715 72.39 0)
      (effects (font (size 1.27 1.27)) hide)
    )
    (property "Datasheet" "~" (id 3) (at 132.715 72.39 0)
      (effects (font (size 1.27 1.27)) hide)
    )
    (property "Digikey part" "inv" (id 4) (at 132.715 72.39 0)
      (effects (font (size 1.27 1.27)) hide)
    )
    (property "Tolerance" "*" (id 5) (at 132.715 72.39 0)
      (effects (font (size 1.27 1.27)) hide)
    )
    (pin "1" (uuid a7c035a8-5a76-4d66-9cfe-76d16317c63a))
    (pin "2" (uuid 103dd90b-323a-493e-a240-8487a6edc7e6))
  )

  (symbol (lib_id "Device:C_Small") (at 121.285 72.39 90) (unit 1)
    (in_bom yes) (on_board yes) (fields_autoplaced)
    (uuid 8db2043c-38de-4049-8260-af42f9e5e807)
    (property "Reference" "C9" (id 0) (at 121.2913 67.1281 90))
    (property "Value" "1u" (id 1) (at 121.2913 69.665 90))
    (property "Footprint" "Capacitor_SMD:C_0805_2012Metric" (id 2) (at 121.285 72.39 0)
      (effects (font (size 1.27 1.27)) hide)
    )
    (property "Datasheet" "~" (id 3) (at 121.285 72.39 0)
      (effects (font (size 1.27 1.27)) hide)
    )
    (property "Tolerance" "*" (id 4) (at 121.285 72.39 0)
      (effects (font (size 1.27 1.27)) hide)
    )
    (property "Digikey part" "inv" (id 5) (at 121.285 72.39 0)
      (effects (font (size 1.27 1.27)) hide)
    )
    (pin "1" (uuid c42e39cd-8873-47d0-9da5-22886200fb88))
    (pin "2" (uuid 952f36d5-81fb-4b53-9404-7ef2c3f93c6f))
  )

  (symbol (lib_id "power:+5V") (at 126.365 78.74 0) (unit 1)
    (in_bom yes) (on_board yes) (fields_autoplaced)
    (uuid 95e71414-3d3d-4b7d-9204-848e3f1cdb63)
    (property "Reference" "#PWR0137" (id 0) (at 126.365 82.55 0)
      (effects (font (size 1.27 1.27)) hide)
    )
    (property "Value" "+5V" (id 1) (at 126.365 75.1642 0))
    (property "Footprint" "" (id 2) (at 126.365 78.74 0)
      (effects (font (size 1.27 1.27)) hide)
    )
    (property "Datasheet" "" (id 3) (at 126.365 78.74 0)
      (effects (font (size 1.27 1.27)) hide)
    )
    (pin "1" (uuid e653cbd5-27f2-4c92-beb6-e1cdb55b3fb5))
  )

  (symbol (lib_id "Device:C_Small") (at 91.44 99.695 0) (unit 1)
    (in_bom yes) (on_board yes) (fields_autoplaced)
    (uuid 98c136fd-263b-4423-8a59-cb034d820625)
    (property "Reference" "C14" (id 0) (at 93.7641 98.8666 0)
      (effects (font (size 1.27 1.27)) (justify left))
    )
    (property "Value" "470p" (id 1) (at 93.7641 101.4035 0)
      (effects (font (size 1.27 1.27)) (justify left))
    )
    (property "Footprint" "Capacitor_SMD:C_0805_2012Metric" (id 2) (at 91.44 99.695 0)
      (effects (font (size 1.27 1.27)) hide)
    )
    (property "Datasheet" "~" (id 3) (at 91.44 99.695 0)
      (effects (font (size 1.27 1.27)) hide)
    )
    (property "Tolerance" "1%, NP0" (id 4) (at 91.44 99.695 0)
      (effects (font (size 1.27 1.27)) hide)
    )
    (property "Digikey part" "732-7856-1-ND" (id 5) (at 91.44 99.695 0)
      (effects (font (size 1.27 1.27)) hide)
    )
    (pin "1" (uuid 801f1d09-f5f8-466c-aca3-ed7c4ab5a8f9))
    (pin "2" (uuid bedc78c5-522c-455a-8a9e-e9a481a8bd53))
  )

  (symbol (lib_id "hfv-1:GND") (at 191.77 135.255 0) (unit 1)
    (in_bom yes) (on_board yes) (fields_autoplaced)
    (uuid 9ee0b414-fc4d-4030-aac0-f576721ec9d6)
    (property "Reference" "#PWR0182" (id 0) (at 191.77 141.605 0)
      (effects (font (size 1.27 1.27)) hide)
    )
    (property "Value" "GND" (id 1) (at 191.77 139.7746 0))
    (property "Footprint" "" (id 2) (at 191.77 135.255 0)
      (effects (font (size 1.27 1.27)) hide)
    )
    (property "Datasheet" "" (id 3) (at 191.77 135.255 0)
      (effects (font (size 1.27 1.27)) hide)
    )
    (pin "1" (uuid c9d76a57-7c05-4938-92bb-9e552c79e280))
  )

  (symbol (lib_id "hfv-1:GND") (at 107.95 131.445 0) (unit 1)
    (in_bom yes) (on_board yes) (fields_autoplaced)
    (uuid a0d8f0eb-eefe-45d4-9bcb-3d025371e76f)
    (property "Reference" "#PWR0134" (id 0) (at 107.95 137.795 0)
      (effects (font (size 1.27 1.27)) hide)
    )
    (property "Value" "GND" (id 1) (at 107.95 135.9646 0))
    (property "Footprint" "" (id 2) (at 107.95 131.445 0)
      (effects (font (size 1.27 1.27)) hide)
    )
    (property "Datasheet" "" (id 3) (at 107.95 131.445 0)
      (effects (font (size 1.27 1.27)) hide)
    )
    (pin "1" (uuid 969762f1-28c7-4d22-96c1-24f5b248c27b))
  )

  (symbol (lib_id "Device:Speaker") (at 183.515 66.675 0) (unit 1)
    (in_bom yes) (on_board yes) (fields_autoplaced)
    (uuid a2c424da-429f-4ad6-9284-6e9327ef9a19)
    (property "Reference" "LS1" (id 0) (at 187.833 68.3788 0)
      (effects (font (size 1.27 1.27)) (justify left))
    )
    (property "Value" "Speaker" (id 1) (at 187.833 69.6472 0)
      (effects (font (size 1.27 1.27)) (justify left) hide)
    )
    (property "Footprint" "Connector_PinHeader_2.54mm:PinHeader_1x02_P2.54mm_Vertical" (id 2) (at 183.515 71.755 0)
      (effects (font (size 1.27 1.27)) hide)
    )
    (property "Datasheet" "~" (id 3) (at 183.261 67.945 0)
      (effects (font (size 1.27 1.27)) hide)
    )
    (property "Digikey part" "inv" (id 4) (at 183.515 66.675 0)
      (effects (font (size 1.27 1.27)) hide)
    )
    (pin "1" (uuid 12a52247-1af9-47e8-97b0-74fa8869b45c))
    (pin "2" (uuid cf65031f-f699-40a9-9534-21024fd5e9b4))
  )

  (symbol (lib_id "Device:R_Small_US") (at 207.645 109.855 0) (unit 1)
    (in_bom yes) (on_board yes) (fields_autoplaced)
    (uuid a961cf90-62f3-44c0-8bef-536b597db882)
    (property "Reference" "R34" (id 0) (at 209.296 109.0203 0)
      (effects (font (size 1.27 1.27)) (justify left))
    )
    (property "Value" "1K5" (id 1) (at 209.296 111.5572 0)
      (effects (font (size 1.27 1.27)) (justify left))
    )
    (property "Footprint" "Resistor_SMD:R_0805_2012Metric" (id 2) (at 207.645 109.855 0)
      (effects (font (size 1.27 1.27)) hide)
    )
    (property "Datasheet" "~" (id 3) (at 207.645 109.855 0)
      (effects (font (size 1.27 1.27)) hide)
    )
    (property "Tolerance" "1%" (id 4) (at 207.645 109.855 0)
      (effects (font (size 1.27 1.27)) hide)
    )
    (property "Digikey part" "311-1.50KCRCT-ND" (id 5) (at 207.645 109.855 0)
      (effects (font (size 1.27 1.27)) hide)
    )
    (pin "1" (uuid c2ca7e47-300d-4767-b010-6a131037132d))
    (pin "2" (uuid d3f9c5fb-e0f7-49c4-9c03-7f091a7836f6))
  )

  (symbol (lib_id "Device:R_Small_US") (at 191.77 109.855 0) (unit 1)
    (in_bom yes) (on_board yes) (fields_autoplaced)
    (uuid b12be921-28ac-43aa-ae64-db3c6bc174d5)
    (property "Reference" "R36" (id 0) (at 193.421 109.0203 0)
      (effects (font (size 1.27 1.27)) (justify left))
    )
    (property "Value" "4K7" (id 1) (at 193.421 111.5572 0)
      (effects (font (size 1.27 1.27)) (justify left))
    )
    (property "Footprint" "Resistor_SMD:R_0805_2012Metric" (id 2) (at 191.77 109.855 0)
      (effects (font (size 1.27 1.27)) hide)
    )
    (property "Datasheet" "~" (id 3) (at 191.77 109.855 0)
      (effects (font (size 1.27 1.27)) hide)
    )
    (property "Tolerance" "1%" (id 4) (at 191.77 109.855 0)
      (effects (font (size 1.27 1.27)) hide)
    )
    (property "Digikey part" "311-4.70KCRCT-ND" (id 5) (at 191.77 109.855 0)
      (effects (font (size 1.27 1.27)) hide)
    )
    (pin "1" (uuid 65202a5d-534f-4911-86f7-1aa024a452c8))
    (pin "2" (uuid 2e4274eb-56ba-4c4e-b497-5b024203380a))
  )

  (symbol (lib_id "Device:R_Small_US") (at 207.645 130.175 0) (unit 1)
    (in_bom yes) (on_board yes) (fields_autoplaced)
    (uuid b2b7002c-d2b9-4091-9320-b2cdbab4215c)
    (property "Reference" "R30" (id 0) (at 205.994 129.3403 0)
      (effects (font (size 1.27 1.27)) (justify right))
    )
    (property "Value" "150" (id 1) (at 205.994 131.8772 0)
      (effects (font (size 1.27 1.27)) (justify right))
    )
    (property "Footprint" "Resistor_SMD:R_0805_2012Metric" (id 2) (at 207.645 130.175 0)
      (effects (font (size 1.27 1.27)) hide)
    )
    (property "Datasheet" "~" (id 3) (at 207.645 130.175 0)
      (effects (font (size 1.27 1.27)) hide)
    )
    (property "Tolerance" "1%" (id 4) (at 207.645 130.175 0)
      (effects (font (size 1.27 1.27)) hide)
    )
    (property "Digikey part" "311-150CRCT-ND" (id 5) (at 207.645 130.175 0)
      (effects (font (size 1.27 1.27)) hide)
    )
    (pin "1" (uuid 1650dd1f-57fc-48cc-bd9c-ab9009db5780))
    (pin "2" (uuid 4f894c81-24d0-4d00-9994-b5ab4340f6cc))
  )

  (symbol (lib_id "Device:R_Small_US") (at 144.78 103.505 270) (unit 1)
    (in_bom yes) (on_board yes) (fields_autoplaced)
    (uuid b3f552eb-ad48-48af-87e5-b9b1608adfbc)
    (property "Reference" "R29" (id 0) (at 144.78 106.4244 90))
    (property "Value" "15K" (id 1) (at 144.78 108.9613 90))
    (property "Footprint" "Resistor_SMD:R_0805_2012Metric" (id 2) (at 144.78 103.505 0)
      (effects (font (size 1.27 1.27)) hide)
    )
    (property "Datasheet" "~" (id 3) (at 144.78 103.505 0)
      (effects (font (size 1.27 1.27)) hide)
    )
    (property "Tolerance" "1%" (id 4) (at 144.78 103.505 0)
      (effects (font (size 1.27 1.27)) hide)
    )
    (property "Digikey part" "311-15.0KCRCT-ND" (id 5) (at 144.78 103.505 0)
      (effects (font (size 1.27 1.27)) hide)
    )
    (pin "1" (uuid 5d857fe5-64e4-45be-9801-321ae9f833fe))
    (pin "2" (uuid 3a151e3a-5134-4f67-8c5d-ba57c72d312d))
  )

  (symbol (lib_id "power:+3V3") (at 191.77 107.315 0) (unit 1)
    (in_bom yes) (on_board yes) (fields_autoplaced)
    (uuid b5d1269e-08c9-450b-8735-525c43e4d635)
    (property "Reference" "#PWR0181" (id 0) (at 191.77 111.125 0)
      (effects (font (size 1.27 1.27)) hide)
    )
    (property "Value" "+3V3" (id 1) (at 191.77 103.7392 0))
    (property "Footprint" "" (id 2) (at 191.77 107.315 0)
      (effects (font (size 1.27 1.27)) hide)
    )
    (property "Datasheet" "" (id 3) (at 191.77 107.315 0)
      (effects (font (size 1.27 1.27)) hide)
    )
    (pin "1" (uuid 0a034e65-3631-4a8a-a4a2-c71a9d12f449))
  )

  (symbol (lib_id "Device:C_Small") (at 100.33 86.36 90) (unit 1)
    (in_bom yes) (on_board yes) (fields_autoplaced)
    (uuid b9be25f4-1f26-4313-b46d-dda2281f52fd)
    (property "Reference" "C19" (id 0) (at 100.3363 89.9525 90))
    (property "Value" "4n7" (id 1) (at 100.3363 92.4894 90))
    (property "Footprint" "Capacitor_SMD:C_0805_2012Metric" (id 2) (at 100.33 86.36 0)
      (effects (font (size 1.27 1.27)) hide)
    )
    (property "Datasheet" "~" (id 3) (at 100.33 86.36 0)
      (effects (font (size 1.27 1.27)) hide)
    )
    (property "Tolerance" "1%, NP0" (id 4) (at 100.33 86.36 0)
      (effects (font (size 1.27 1.27)) hide)
    )
    (property "Digikey part" "478-12766-1-ND" (id 5) (at 100.33 86.36 0)
      (effects (font (size 1.27 1.27)) hide)
    )
    (pin "1" (uuid 9b3d0e69-2b99-4f89-b95f-14c97d172c0c))
    (pin "2" (uuid f31cbdb0-072c-45fa-bde7-ebd6bd94377a))
  )

  (symbol (lib_id "hfv-1:GND") (at 170.18 67.945 0) (unit 1)
    (in_bom yes) (on_board yes) (fields_autoplaced)
    (uuid bbf1cd4b-845a-44ae-b0ef-0045b7f497d8)
    (property "Reference" "#PWR0140" (id 0) (at 170.18 74.295 0)
      (effects (font (size 1.27 1.27)) hide)
    )
    (property "Value" "GND" (id 1) (at 170.18 72.5837 0))
    (property "Footprint" "" (id 2) (at 170.18 67.945 0)
      (effects (font (size 1.27 1.27)) hide)
    )
    (property "Datasheet" "" (id 3) (at 170.18 67.945 0)
      (effects (font (size 1.27 1.27)) hide)
    )
    (pin "1" (uuid 3d5f63ba-f012-412c-bda6-592d9493858c))
  )

  (symbol (lib_id "Device:C_Small") (at 104.14 123.825 0) (mirror y) (unit 1)
    (in_bom yes) (on_board yes) (fields_autoplaced)
    (uuid c7593b9e-43c6-4e72-80b9-c69afefab707)
    (property "Reference" "C16" (id 0) (at 101.8159 122.9966 0)
      (effects (font (size 1.27 1.27)) (justify left))
    )
    (property "Value" "100n" (id 1) (at 101.8159 125.5335 0)
      (effects (font (size 1.27 1.27)) (justify left))
    )
    (property "Footprint" "Capacitor_SMD:C_0805_2012Metric" (id 2) (at 104.14 123.825 0)
      (effects (font (size 1.27 1.27)) hide)
    )
    (property "Datasheet" "~" (id 3) (at 104.14 123.825 0)
      (effects (font (size 1.27 1.27)) hide)
    )
    (property "Digikey part" "inv" (id 4) (at 104.14 123.825 0)
      (effects (font (size 1.27 1.27)) hide)
    )
    (property "Tolerance" "*" (id 5) (at 104.14 123.825 0)
      (effects (font (size 1.27 1.27)) hide)
    )
    (pin "1" (uuid 9728f494-1b26-402b-b728-65fb2305d9f9))
    (pin "2" (uuid d9bdc5d4-7eb4-4cf6-af97-52c1e330fa64))
  )

  (symbol (lib_id "Device:R_Small_US") (at 182.88 109.855 0) (unit 1)
    (in_bom yes) (on_board yes) (fields_autoplaced)
    (uuid c9114ae7-0e61-46bb-a47c-b4cdd0d95a5b)
    (property "Reference" "R31" (id 0) (at 181.229 109.0203 0)
      (effects (font (size 1.27 1.27)) (justify right))
    )
    (property "Value" "2K2" (id 1) (at 181.229 111.5572 0)
      (effects (font (size 1.27 1.27)) (justify right))
    )
    (property "Footprint" "Resistor_SMD:R_0805_2012Metric" (id 2) (at 182.88 109.855 0)
      (effects (font (size 1.27 1.27)) hide)
    )
    (property "Datasheet" "~" (id 3) (at 182.88 109.855 0)
      (effects (font (size 1.27 1.27)) hide)
    )
    (property "Tolerance" "1%" (id 4) (at 182.88 109.855 0)
      (effects (font (size 1.27 1.27)) hide)
    )
    (property "Digikey part" "311-2.20KCRCT-ND" (id 5) (at 182.88 109.855 0)
      (effects (font (size 1.27 1.27)) hide)
    )
    (pin "1" (uuid 6fe6fcc9-b89f-47f7-8527-a49730c381dd))
    (pin "2" (uuid e2466582-3135-401e-92c7-13f2d993ff3d))
  )

  (symbol (lib_id "hfv-1:LM4808") (at 144.78 95.885 0) (unit 2)
    (in_bom yes) (on_board yes) (fields_autoplaced)
    (uuid d9f5af1a-0687-4185-900b-0000ca036b88)
    (property "Reference" "U3" (id 0) (at 144.78 87.1052 0))
    (property "Value" "LM4808" (id 1) (at 144.78 89.6421 0))
    (property "Footprint" "Package_SO:SO-8_3.9x4.9mm_P1.27mm" (id 2) (at 144.78 95.885 0)
      (effects (font (size 1.27 1.27)) hide)
    )
    (property "Datasheet" "https://www.ti.com/lit/ds/symlink/lm4808.pdf" (id 3) (at 144.78 95.885 0)
      (effects (font (size 1.27 1.27)) hide)
    )
    (pin "5" (uuid 28e2db67-4bb1-42aa-bea6-95f94c892fe0))
    (pin "6" (uuid bf1819e7-b915-4d4e-a3f2-f18a032a48f9))
    (pin "7" (uuid 42772159-031c-4537-b536-b789eeec2dfe))
  )

  (symbol (lib_id "Device:R_Small_US") (at 78.74 69.85 270) (unit 1)
    (in_bom yes) (on_board yes) (fields_autoplaced)
    (uuid ddbd72d5-8d7e-41e0-aec1-7453f29290ca)
    (property "Reference" "R17" (id 0) (at 78.74 65.2612 90))
    (property "Value" "680" (id 1) (at 78.74 67.7981 90))
    (property "Footprint" "Resistor_SMD:R_0805_2012Metric" (id 2) (at 78.74 69.85 0)
      (effects (font (size 1.27 1.27)) hide)
    )
    (property "Datasheet" "~" (id 3) (at 78.74 69.85 0)
      (effects (font (size 1.27 1.27)) hide)
    )
    (property "Tolerance" "1%" (id 4) (at 78.74 69.85 0)
      (effects (font (size 1.27 1.27)) hide)
    )
    (property "Digikey part" "311-680CRCT-ND" (id 5) (at 78.74 69.85 0)
      (effects (font (size 1.27 1.27)) hide)
    )
    (pin "1" (uuid ad7b65f7-6f59-4c86-b85f-187a7a19467f))
    (pin "2" (uuid ecf4d31d-654f-4b1a-a478-4f7dc6cd340a))
  )

  (symbol (lib_id "hfv-1:GND") (at 90.805 76.2 0) (unit 1)
    (in_bom yes) (on_board yes) (fields_autoplaced)
    (uuid e87b164d-83c9-4d8f-a951-25aaa9404dde)
    (property "Reference" "#PWR034" (id 0) (at 90.805 82.55 0)
      (effects (font (size 1.27 1.27)) hide)
    )
    (property "Value" "GND" (id 1) (at 90.805 80.8387 0))
    (property "Footprint" "" (id 2) (at 90.805 76.2 0)
      (effects (font (size 1.27 1.27)) hide)
    )
    (property "Datasheet" "" (id 3) (at 90.805 76.2 0)
      (effects (font (size 1.27 1.27)) hide)
    )
    (pin "1" (uuid c10b9920-6a02-4c04-b3a9-cc56f5c64623))
  )

  (symbol (lib_id "power:+3V3") (at 182.88 107.315 0) (unit 1)
    (in_bom yes) (on_board yes) (fields_autoplaced)
    (uuid e9fe2176-666f-4472-9413-f6ae53c746a0)
    (property "Reference" "#PWR0180" (id 0) (at 182.88 111.125 0)
      (effects (font (size 1.27 1.27)) hide)
    )
    (property "Value" "+3V3" (id 1) (at 182.88 103.7392 0))
    (property "Footprint" "" (id 2) (at 182.88 107.315 0)
      (effects (font (size 1.27 1.27)) hide)
    )
    (property "Datasheet" "" (id 3) (at 182.88 107.315 0)
      (effects (font (size 1.27 1.27)) hide)
    )
    (pin "1" (uuid 6734dc0f-f9f1-4062-a32a-902d90dd8672))
  )

  (symbol (lib_id "hfv-1:AudioJack4_Switch") (at 180.34 89.535 180) (unit 1)
    (in_bom yes) (on_board yes) (fields_autoplaced)
    (uuid f501647a-8eaf-4651-a496-ac4e7cbfb188)
    (property "Reference" "J1" (id 0) (at 189.992 86.7938 0)
      (effects (font (size 1.27 1.27)) (justify right))
    )
    (property "Value" "SJ-43515TS" (id 1) (at 189.992 88.0622 0)
      (effects (font (size 1.27 1.27)) (justify right) hide)
    )
    (property "Footprint" "hfv-1:SJ-43515TS" (id 2) (at 181.61 86.995 0)
      (effects (font (size 1.27 1.27)) hide)
    )
    (property "Datasheet" "https://www.cuidevices.com/product/resource/sj-4351x.pdf" (id 3) (at 181.61 86.995 0)
      (effects (font (size 1.27 1.27)) hide)
    )
    (property "Digikey part" "CP-43515TS-ND" (id 4) (at 180.34 89.535 0)
      (effects (font (size 1.27 1.27)) hide)
    )
    (pin "R1" (uuid bdd1bd91-928d-411a-832f-0d74ac9e7f8c))
    (pin "R2" (uuid cc3092ad-571e-4f48-ba69-b9806eda3905))
    (pin "S" (uuid ca0981cf-cc63-4304-b713-503c1872a21c))
    (pin "T" (uuid 933d488d-4fed-46f7-b755-65175275e65f))
    (pin "TN" (uuid 4e66485b-70a6-4176-8bd2-47cb56e69aba))
  )

  (symbol (lib_id "Device:R_Small_US") (at 191.77 127.635 0) (unit 1)
    (in_bom yes) (on_board yes) (fields_autoplaced)
    (uuid f919dd18-da4b-4347-96f0-015cfa945523)
    (property "Reference" "R35" (id 0) (at 190.119 126.8003 0)
      (effects (font (size 1.27 1.27)) (justify right))
    )
    (property "Value" "1K5" (id 1) (at 190.119 129.3372 0)
      (effects (font (size 1.27 1.27)) (justify right))
    )
    (property "Footprint" "Resistor_SMD:R_0805_2012Metric" (id 2) (at 191.77 127.635 0)
      (effects (font (size 1.27 1.27)) hide)
    )
    (property "Datasheet" "~" (id 3) (at 191.77 127.635 0)
      (effects (font (size 1.27 1.27)) hide)
    )
    (property "Tolerance" "1%" (id 4) (at 191.77 127.635 0)
      (effects (font (size 1.27 1.27)) hide)
    )
    (property "Digikey part" "311-1.50KCRCT-ND" (id 5) (at 191.77 127.635 0)
      (effects (font (size 1.27 1.27)) hide)
    )
    (pin "1" (uuid 1bb2fe19-3b58-4386-b40c-72e05a7da5da))
    (pin "2" (uuid bb7291c5-d1c7-4702-8744-d3426effc040))
  )

  (symbol (lib_id "Device:Q_NPN_BEC") (at 205.105 120.015 0) (unit 1)
    (in_bom yes) (on_board yes) (fields_autoplaced)
    (uuid fa9ec016-7927-4f86-8338-31538bb26585)
    (property "Reference" "Q1" (id 0) (at 209.9564 119.1803 0)
      (effects (font (size 1.27 1.27)) (justify left))
    )
    (property "Value" "MMBT3904" (id 1) (at 209.9564 121.7172 0)
      (effects (font (size 1.27 1.27)) (justify left))
    )
    (property "Footprint" "Package_TO_SOT_SMD:SOT-23" (id 2) (at 210.185 117.475 0)
      (effects (font (size 1.27 1.27)) hide)
    )
    (property "Datasheet" "https://assets.nexperia.com/documents/data-sheet/MMBT3904.pdf" (id 3) (at 205.105 120.015 0)
      (effects (font (size 1.27 1.27)) hide)
    )
    (property "Digikey part" "3757-MMBT3904_R1_00001CT-ND" (id 4) (at 205.105 120.015 0)
      (effects (font (size 1.27 1.27)) hide)
    )
    (pin "1" (uuid 5061fa11-1648-49f8-8879-e3060670d80a))
    (pin "2" (uuid fe07ed9c-633f-4bd4-98e3-b4214ec25be9))
    (pin "3" (uuid 66254525-83a4-43a5-b549-8c2f28180a05))
  )

  (symbol (lib_id "Device:R_Small_US") (at 79.375 95.885 270) (unit 1)
    (in_bom yes) (on_board yes) (fields_autoplaced)
    (uuid fb444f53-194d-4289-a624-a387cabd562f)
    (property "Reference" "R25" (id 0) (at 79.375 91.2962 90))
    (property "Value" "680" (id 1) (at 79.375 93.8331 90))
    (property "Footprint" "Resistor_SMD:R_0805_2012Metric" (id 2) (at 79.375 95.885 0)
      (effects (font (size 1.27 1.27)) hide)
    )
    (property "Datasheet" "~" (id 3) (at 79.375 95.885 0)
      (effects (font (size 1.27 1.27)) hide)
    )
    (property "Tolerance" "1%" (id 4) (at 79.375 95.885 0)
      (effects (font (size 1.27 1.27)) hide)
    )
    (property "Digikey part" "311-680CRCT-ND" (id 5) (at 79.375 95.885 0)
      (effects (font (size 1.27 1.27)) hide)
    )
    (pin "1" (uuid 02987a90-31d7-4bde-812f-2068cdf9b4b5))
    (pin "2" (uuid 5574ef6b-55ca-492c-9847-22f433e8c3c8))
  )
)
